%!PS-Adobe-2.0 EPSF-1.2
%%Creator: MATLAB, The MathWorks, Inc. Version 8.1.0.604 (R2013a). Operating System: Linux 4.8.2-040802-generic #201610161339 SMP Sun Oct 16 17:41:46 UTC 2016 x86_64.
%%Title: ./distance.eps
%%CreationDate: 11/05/2016  15:42:53
%%DocumentNeededFonts: Helvetica
%%DocumentProcessColors: Cyan Magenta Yellow Black
%%Extensions: CMYK
%%Pages: 1
%%BoundingBox:    55   199   551   602
%%EndComments

%%BeginProlog
% MathWorks dictionary
/MathWorks 160 dict begin
% definition operators
/bdef {bind def} bind def
/ldef {load def} bind def
/xdef {exch def} bdef
/xstore {exch store} bdef
% operator abbreviations
/c  /clip ldef
/cc /concat ldef
/cp /closepath ldef
/gr /grestore ldef
/gs /gsave ldef
/mt /moveto ldef
/np /newpath ldef
/cm /currentmatrix ldef
/sm /setmatrix ldef
/rm /rmoveto ldef
/rl /rlineto ldef
/s {show newpath} bdef
/sc {setcmykcolor} bdef
/sr /setrgbcolor ldef
/sg /setgray ldef
/w /setlinewidth ldef
/j /setlinejoin ldef
/cap /setlinecap ldef
/rc {rectclip} bdef
/rf {rectfill} bdef
% page state control
/pgsv () def
/bpage {/pgsv save def} bdef
/epage {pgsv restore} bdef
/bplot /gsave ldef
/eplot {stroke grestore} bdef
% orientation switch
/portraitMode 0 def /landscapeMode 1 def /rotateMode 2 def
% coordinate system mappings
/dpi2point 0 def
% font control
/FontSize 0 def
/FMS {/FontSize xstore findfont [FontSize 0 0 FontSize neg 0 0]
  makefont setfont} bdef
/reencode {exch dup where {pop load} {pop StandardEncoding} ifelse
  exch dup 3 1 roll findfont dup length dict begin
  { 1 index /FID ne {def}{pop pop} ifelse } forall
  /Encoding exch def currentdict end definefont pop} bdef
/isroman {findfont /CharStrings get /Agrave known} bdef
/FMSR {3 1 roll 1 index dup isroman {reencode} {pop pop} ifelse
  exch FMS} bdef
/csm {1 dpi2point div -1 dpi2point div scale neg translate
 dup landscapeMode eq {pop -90 rotate}
  {rotateMode eq {90 rotate} if} ifelse} bdef
% line types: solid, dotted, dashed, dotdash
/SO { [] 0 setdash } bdef
/DO { [.5 dpi2point mul 4 dpi2point mul] 0 setdash } bdef
/DA { [6 dpi2point mul] 0 setdash } bdef
/DD { [.5 dpi2point mul 4 dpi2point mul 6 dpi2point mul 4
  dpi2point mul] 0 setdash } bdef
% macros for lines and objects
/L {lineto stroke} bdef
/MP {3 1 roll moveto 1 sub {rlineto} repeat} bdef
/AP {{rlineto} repeat} bdef
/PDlw -1 def
/W {/PDlw currentlinewidth def setlinewidth} def
/PP {closepath eofill} bdef
/DP {closepath stroke} bdef
/MR {4 -2 roll moveto dup  0 exch rlineto exch 0 rlineto
  neg 0 exch rlineto closepath} bdef
/FR {MR stroke} bdef
/PR {MR fill} bdef
/L1i {{currentfile picstr readhexstring pop} image} bdef
/tMatrix matrix def
/MakeOval {newpath tMatrix currentmatrix pop translate scale
0 0 1 0 360 arc tMatrix setmatrix} bdef
/FO {MakeOval stroke} bdef
/PO {MakeOval fill} bdef
/PD {currentlinewidth 2 div 0 360 arc fill
   PDlw -1 eq not {PDlw w /PDlw -1 def} if} def
/FA {newpath tMatrix currentmatrix pop translate scale
  0 0 1 5 -2 roll arc tMatrix setmatrix stroke} bdef
/PA {newpath tMatrix currentmatrix pop	translate 0 0 moveto scale
  0 0 1 5 -2 roll arc closepath tMatrix setmatrix fill} bdef
/FAn {newpath tMatrix currentmatrix pop translate scale
  0 0 1 5 -2 roll arcn tMatrix setmatrix stroke} bdef
/PAn {newpath tMatrix currentmatrix pop translate 0 0 moveto scale
  0 0 1 5 -2 roll arcn closepath tMatrix setmatrix fill} bdef
/vradius 0 def /hradius 0 def /lry 0 def
/lrx 0 def /uly 0 def /ulx 0 def /rad 0 def
/MRR {/vradius xdef /hradius xdef /lry xdef /lrx xdef /uly xdef
  /ulx xdef newpath tMatrix currentmatrix pop ulx hradius add uly
  vradius add translate hradius vradius scale 0 0 1 180 270 arc 
  tMatrix setmatrix lrx hradius sub uly vradius add translate
  hradius vradius scale 0 0 1 270 360 arc tMatrix setmatrix
  lrx hradius sub lry vradius sub translate hradius vradius scale
  0 0 1 0 90 arc tMatrix setmatrix ulx hradius add lry vradius sub
  translate hradius vradius scale 0 0 1 90 180 arc tMatrix setmatrix
  closepath} bdef
/FRR {MRR stroke } bdef
/PRR {MRR fill } bdef
/MlrRR {/lry xdef /lrx xdef /uly xdef /ulx xdef /rad lry uly sub 2 div def
  newpath tMatrix currentmatrix pop ulx rad add uly rad add translate
  rad rad scale 0 0 1 90 270 arc tMatrix setmatrix lrx rad sub lry rad
  sub translate rad rad scale 0 0 1 270 90 arc tMatrix setmatrix
  closepath} bdef
/FlrRR {MlrRR stroke } bdef
/PlrRR {MlrRR fill } bdef
/MtbRR {/lry xdef /lrx xdef /uly xdef /ulx xdef /rad lrx ulx sub 2 div def
  newpath tMatrix currentmatrix pop ulx rad add uly rad add translate
  rad rad scale 0 0 1 180 360 arc tMatrix setmatrix lrx rad sub lry rad
  sub translate rad rad scale 0 0 1 0 180 arc tMatrix setmatrix
  closepath} bdef
/FtbRR {MtbRR stroke } bdef
/PtbRR {MtbRR fill } bdef
/stri 6 array def /dtri 6 array def
/smat 6 array def /dmat 6 array def
/tmat1 6 array def /tmat2 6 array def /dif 3 array def
/asub {/ind2 exch def /ind1 exch def dup dup
  ind1 get exch ind2 get sub exch } bdef
/tri_to_matrix {
  2 0 asub 3 1 asub 4 0 asub 5 1 asub
  dup 0 get exch 1 get 7 -1 roll astore } bdef
/compute_transform {
  dmat dtri tri_to_matrix tmat1 invertmatrix 
  smat stri tri_to_matrix tmat2 concatmatrix } bdef
/ds {stri astore pop} bdef
/dt {dtri astore pop} bdef
/db {2 copy /cols xdef /rows xdef mul dup 3 mul string
  currentfile exch readhexstring pop
  dup 0 3 index getinterval /rbmap xdef
  dup 2 index dup getinterval /gbmap xdef
  1 index dup 2 mul exch getinterval /bbmap xdef pop pop}bdef
/it {gs np dtri aload pop moveto lineto lineto cp c
  cols rows 8 compute_transform 
  rbmap gbmap bbmap true 3 colorimage gr}bdef
/il {newpath moveto lineto stroke}bdef
currentdict end def
%%EndProlog

%%BeginSetup
MathWorks begin

0 cap

end
%%EndSetup

%%Page: 1 1
%%BeginPageSetup
%%PageBoundingBox:    55   199   551   602
MathWorks begin
bpage
%%EndPageSetup

%%BeginObject: obj1
bplot

/dpi2point 12 def
portraitMode 0216 7344 csm

  446   109  5958  4846 MR c np
85 dict begin %Colortable dictionary
/c0 { 0.000000 0.000000 0.000000 sr} bdef
/c1 { 1.000000 1.000000 1.000000 sr} bdef
/c2 { 0.900000 0.000000 0.000000 sr} bdef
/c3 { 0.000000 0.820000 0.000000 sr} bdef
/c4 { 0.000000 0.000000 0.800000 sr} bdef
/c5 { 0.910000 0.820000 0.320000 sr} bdef
/c6 { 1.000000 0.260000 0.820000 sr} bdef
/c7 { 0.000000 0.820000 0.820000 sr} bdef
c0
1 j
1 sg
   0    0 6913 5186 PR
6 w
0 4227 5356 0 0 -4227 899 4615 4 MP
PP
-5356 0 0 4227 5356 0 0 -4227 899 4615 5 MP stroke
4 w
DO
0 sg
 899 4615 mt  899  389 L
 899  389 mt  899  389 L
1434 4615 mt 1434  389 L
1434  389 mt 1434  389 L
1970 4615 mt 1970  389 L
1970  389 mt 1970  389 L
2505 4615 mt 2505  389 L
2505  389 mt 2505  389 L
3041 4615 mt 3041  389 L
3041  389 mt 3041  389 L
3577 4615 mt 3577  389 L
3577  389 mt 3577  389 L
4112 4615 mt 4112  389 L
4112  389 mt 4112  389 L
4648 4615 mt 4648  389 L
4648  389 mt 4648  389 L
5183 4615 mt 5183  389 L
5183  389 mt 5183  389 L
5719 4615 mt 5719  389 L
5719  389 mt 5719  389 L
6255 4615 mt 6255  389 L
6255  389 mt 6255  389 L
 899 4614 mt 6255 4614 L
6255 4614 mt 6255 4614 L
 899 4191 mt 6255 4191 L
6255 4191 mt 6255 4191 L
 899 3769 mt 6255 3769 L
6255 3769 mt 6255 3769 L
 899 3346 mt 6255 3346 L
6255 3346 mt 6255 3346 L
 899 2924 mt 6255 2924 L
6255 2924 mt 6255 2924 L
 899 2502 mt 6255 2502 L
6255 2502 mt 6255 2502 L
 899 2079 mt 6255 2079 L
6255 2079 mt 6255 2079 L
 899 1657 mt 6255 1657 L
6255 1657 mt 6255 1657 L
 899 1234 mt 6255 1234 L
6255 1234 mt 6255 1234 L
 899  812 mt 6255  812 L
6255  812 mt 6255  812 L
 899  389 mt 6255  389 L
6255  389 mt 6255  389 L
SO
6 w
 899 4615 mt 6255 4615 L
 899  388 mt 6255  388 L
 899 4615 mt  899  388 L
6255 4615 mt 6255  388 L
 899 4615 mt 6255 4615 L
 899 4615 mt  899  388 L
 899 4615 mt  899 4561 L
 899  389 mt  899  442 L
%%IncludeResource: font Helvetica
/Helvetica /ISOLatin1Encoding 120 FMSR

 866 4760 mt 
(0) s
1434 4615 mt 1434 4561 L
1434  389 mt 1434  442 L
1368 4760 mt 
(50) s
1970 4615 mt 1970 4561 L
1970  389 mt 1970  442 L
1870 4760 mt 
(100) s
2505 4615 mt 2505 4561 L
2505  389 mt 2505  442 L
2405 4760 mt 
(150) s
3041 4615 mt 3041 4561 L
3041  389 mt 3041  442 L
2941 4760 mt 
(200) s
3577 4615 mt 3577 4561 L
3577  389 mt 3577  442 L
3477 4760 mt 
(250) s
4112 4615 mt 4112 4561 L
4112  389 mt 4112  442 L
4012 4760 mt 
(300) s
4648 4615 mt 4648 4561 L
4648  389 mt 4648  442 L
4548 4760 mt 
(350) s
5183 4615 mt 5183 4561 L
5183  389 mt 5183  442 L
5083 4760 mt 
(400) s
5719 4615 mt 5719 4561 L
5719  389 mt 5719  442 L
5619 4760 mt 
(450) s
6255 4615 mt 6255 4561 L
6255  389 mt 6255  442 L
6155 4760 mt 
(500) s
 899 4614 mt  952 4614 L
6255 4614 mt 6201 4614 L
 798 4658 mt 
(0) s
 899 4191 mt  952 4191 L
6255 4191 mt 6201 4191 L
 731 4235 mt 
(50) s
 899 3769 mt  952 3769 L
6255 3769 mt 6201 3769 L
 664 3813 mt 
(100) s
 899 3346 mt  952 3346 L
6255 3346 mt 6201 3346 L
 664 3390 mt 
(150) s
 899 2924 mt  952 2924 L
6255 2924 mt 6201 2924 L
 664 2968 mt 
(200) s
 899 2502 mt  952 2502 L
6255 2502 mt 6201 2502 L
 664 2546 mt 
(250) s
 899 2079 mt  952 2079 L
6255 2079 mt 6201 2079 L
 664 2123 mt 
(300) s
 899 1657 mt  952 1657 L
6255 1657 mt 6201 1657 L
 664 1701 mt 
(350) s
 899 1234 mt  952 1234 L
6255 1234 mt 6201 1234 L
 664 1278 mt 
(400) s
 899  812 mt  952  812 L
6255  812 mt 6201  812 L
 664  856 mt 
(450) s
 899  389 mt  952  389 L
6255  389 mt 6201  389 L
 664  433 mt 
(500) s
 899 4615 mt 6255 4615 L
 899  388 mt 6255  388 L
 899 4615 mt  899  388 L
6255 4615 mt 6255  388 L
gs 899 388 5357 4228 MR c np
/c8 { 0.000000 0.000000 1.000000 sr} bdef
c8
2 -1 2 -2 2 -1 3 -2 2 -1 2 -2 2 -1 2 -2 
2 -1 2 -2 3 -1 2 -2 2 -2 2 -1 2 -2 2 -1 
2 -2 3 -1 2 -2 2 -1 2 -2 2 -1 2 -2 2 -1 
3 -2 2 -1 2 -2 2 -1 2 -2 2 -1 2 -2 3 -1 
2 -2 2 -1 2 -2 2 -1 2 -2 2 -2 3 -1 2 -2 
2 -1 2 -2 2 -1 2 -2 2 -1 3 -2 2 -1 2 -2 
2 -1 2 -2 2 -1 2 -2 3 -1 2 -2 2 -1 2 -2 
2 -1 2 -2 2 -1 3 -2 2 -1 2 -2 2 -2 2 -1 
2 -2 2 -1 3 -2 2 -1 2 -2 2 -1 2 -2 2 -1 
2 -2 2 -1 3 -2 2 -1 2 -2 2 -1 2 -2 2 -1 
2 -2 3 -1 2 -2 2 -1 2 -2 2 -2 2 -1 2 -2 
3 -1 2 -2 2 -1 2 -2 2 -1 2 -2 2 -1 3 -2 
2 -1 2 -2 2 -1 6043 1646 100 MP stroke
2 -2 2 -1 2 -2 3 -1 2 -2 2 -1 2 -2 2 -1 
2 -2 2 -1 3 -2 2 -2 2 -1 2 -2 2 -1 2 -2 
2 -1 3 -2 2 -1 2 -2 2 -1 2 -2 2 -1 2 -2 
3 -1 2 -2 2 -1 2 -2 2 -1 2 -2 2 -1 3 -2 
2 -1 2 -2 2 -2 2 -1 2 -2 2 -1 3 -2 2 -1 
2 -2 2 -1 2 -2 2 -1 2 -2 3 -1 2 -2 2 -1 
2 -2 2 -1 2 -2 2 -1 3 -2 2 -1 2 -2 2 -1 
2 -2 2 -1 2 -2 3 -2 2 -1 2 -2 2 -1 2 -2 
2 -1 2 -2 3 -1 2 -2 2 -1 2 -2 2 -1 2 -2 
2 -1 3 -2 2 -1 2 -2 2 -1 2 -2 2 -1 2 -2 
3 -1 2 -2 2 -2 2 -1 2 -2 2 -1 2 -2 3 -1 
2 -2 2 -1 2 -2 2 -1 2 -2 2 -1 3 -2 2 -1 
2 -2 2 -1 2 -2 5831 1797 100 MP stroke
2 -1 2 -2 3 -1 2 -2 2 -1 2 -2 2 -1 2 -2 
2 -2 3 -1 2 -2 2 -1 2 -2 2 -1 2 -2 2 -1 
3 -2 2 -1 2 -2 2 -1 2 -2 2 -1 2 -2 3 -1 
2 -2 2 -1 2 -2 2 -1 2 -2 2 -1 3 -2 2 -2 
2 -1 2 -2 2 -1 2 -2 2 -1 3 -2 2 -1 2 -2 
2 -1 2 -2 2 -1 2 -2 3 -1 2 -2 2 -1 2 -2 
2 -1 2 -2 2 -1 3 -2 2 -1 2 -2 2 -1 2 -2 
2 -2 2 -1 3 -2 2 -1 2 -2 2 -1 2 -2 2 -1 
2 -2 3 -1 2 -2 2 -1 2 -2 2 -1 2 -2 2 -1 
3 -2 2 -1 2 -2 2 -1 2 -2 2 -1 2 -2 3 -1 
2 -2 2 -2 2 -1 2 -2 2 -1 2 -2 3 -1 2 -2 
2 -1 2 -2 2 -1 2 -2 2 -1 3 -2 2 -1 2 -2 
2 -1 2 -2 2 -1 5619 1947 100 MP stroke
2 -2 3 -1 2 -2 2 -1 2 -2 2 -2 2 -1 2 -2 
3 -1 2 -2 2 -1 2 -2 2 -1 2 -2 2 -1 3 -2 
2 -1 2 -2 2 -1 2 -2 2 -1 2 -2 3 -1 2 -2 
2 -1 2 -2 2 -1 2 -2 2 -1 3 -2 2 -2 2 -1 
2 -2 2 -1 2 -2 2 -1 3 -2 2 -1 2 -2 2 -1 
2 -2 2 -1 2 -2 3 -1 2 -2 2 -1 2 -2 2 -1 
2 -2 2 -1 3 -2 2 -1 2 -2 2 -2 2 -1 2 -2 
2 -1 3 -2 2 -1 2 -2 2 -1 2 -2 2 -1 2 -2 
3 -1 2 -2 2 -1 2 -2 2 -1 2 -2 2 -1 3 -2 
2 -1 2 -2 2 -1 2 -2 2 -1 2 -2 3 -2 2 -1 
2 -2 2 -1 2 -2 2 -1 2 -2 2 -1 3 -2 2 -1 
2 -2 2 -1 2 -2 2 -1 2 -2 3 -1 2 -2 2 -1 
2 -2 2 -1 2 -2 5407 2098 100 MP stroke
2 -1 3 -2 2 -2 2 -1 2 -2 2 -1 2 -2 2 -1 
3 -2 2 -1 2 -2 2 -1 2 -2 2 -1 2 -2 3 -1 
2 -2 2 -1 2 -2 2 -1 2 -2 2 -1 3 -2 2 -1 
2 -2 2 -1 2 -2 2 -2 2 -1 3 -2 2 -1 2 -2 
2 -1 2 -2 2 -1 2 -2 3 -1 2 -2 2 -1 2 -2 
2 -1 2 -2 2 -1 3 -2 2 -1 2 -2 2 -1 2 -2 
2 -1 2 -2 3 -2 2 -1 2 -2 2 -1 2 -2 2 -1 
2 -2 3 -1 2 -2 2 -1 2 -2 2 -1 2 -2 2 -1 
3 -2 2 -1 2 -2 2 -1 2 -2 2 -1 2 -2 3 -1 
2 -2 2 -1 2 -2 2 -2 2 -1 2 -2 3 -1 2 -2 
2 -1 2 -2 2 -1 2 -2 2 -1 3 -2 2 -1 2 -2 
2 -1 2 -2 2 -1 2 -2 3 -1 2 -2 2 -1 2 -2 
2 -1 2 -2 2 -2 5195 2249 100 MP stroke
3 -1 2 -2 2 -1 2 -2 2 -1 2 -2 2 -1 3 -2 
2 -1 2 -2 2 -1 2 -2 2 -1 2 -2 3 -1 2 -2 
2 -1 2 -2 2 -1 2 -2 2 -1 3 -2 2 -1 2 -2 
2 -2 2 -1 2 -2 2 -1 3 -2 2 -1 2 -2 2 -1 
2 -2 2 -1 2 -2 3 -1 2 -2 2 -1 2 -2 2 -1 
2 -2 2 -1 3 -2 2 -1 2 -2 2 -1 2 -2 2 -1 
2 -2 3 -2 2 -1 2 -2 2 -1 2 -2 2 -1 2 -2 
3 -1 2 -2 2 -1 2 -2 2 -1 2 -2 2 -1 3 -2 
2 -1 2 -2 2 -1 2 -2 2 -1 2 -2 3 -1 2 -2 
2 -2 2 -1 2 -2 2 -1 2 -2 3 -1 2 -2 2 -1 
2 -2 2 -1 2 -2 2 -1 3 -2 2 -1 2 -2 2 -1 
2 -2 2 -1 2 -2 3 -1 2 -2 2 -1 2 -2 2 -1 
2 -2 2 -2 3 -1 4982 2399 100 MP stroke
2 -2 2 -1 2 -2 2 -1 2 -2 2 -1 3 -2 2 -1 
2 -2 2 -1 2 -2 2 -1 2 -2 3 -1 2 -2 2 -1 
2 -2 2 -1 2 -2 2 -1 3 -2 2 -2 2 -1 2 -2 
2 -1 2 -2 2 -1 3 -2 2 -1 2 -2 2 -1 2 -2 
2 -1 2 -2 3 -1 2 -2 2 -1 2 -2 2 -1 2 -2 
2 -1 3 -2 2 -1 2 -2 2 -1 2 -2 2 -2 2 -1 
3 -2 2 -1 2 -2 2 -1 2 -2 2 -1 2 -2 3 -1 
2 -2 2 -1 2 -2 2 -1 2 -2 2 -1 3 -2 2 -1 
2 -2 2 -1 2 -2 2 -1 2 -2 3 -2 2 -1 2 -2 
2 -1 2 -2 2 -1 2 -2 3 -1 2 -2 2 -1 2 -2 
2 -1 2 -2 2 -1 3 -2 2 -1 2 -2 2 -1 2 -2 
2 -1 2 -2 3 -1 2 -2 2 -1 2 -2 2 -2 2 -1 
2 -2 3 -1 2 -2 4770 2550 100 MP stroke
2 -1 2 -2 2 -1 2 -2 2 -1 2 -2 3 -1 2 -2 
2 -1 2 -2 2 -1 2 -2 2 -1 3 -2 2 -1 2 -2 
2 -1 2 -2 2 -2 2 -1 3 -2 2 -1 2 -2 2 -1 
2 -2 2 -1 2 -2 3 -1 2 -2 2 -1 2 -2 2 -1 
2 -2 2 -1 3 -2 2 -1 2 -2 2 -1 2 -2 2 -1 
2 -2 3 -1 2 -2 2 -2 2 -1 2 -2 2 -1 2 -2 
3 -1 2 -2 2 -1 2 -2 2 -1 2 -2 2 -1 3 -2 
2 -1 2 -2 2 -1 2 -2 2 -1 2 -2 3 -1 2 -2 
2 -1 2 -2 2 -2 2 -1 2 -2 3 -1 2 -2 2 -1 
2 -2 2 -1 2 -2 2 -1 3 -2 2 -1 2 -2 2 -1 
2 -2 2 -1 2 -2 3 -1 2 -2 2 -1 2 -2 2 -1 
2 -2 2 -1 3 -2 2 -2 2 -1 2 -2 2 -1 2 -2 
2 -1 3 -2 2 -1 4558 2700 100 MP stroke
2 -2 2 -1 2 -2 2 -1 2 -2 3 -1 2 -2 2 -1 
2 -2 2 -1 2 -2 2 -1 3 -2 2 -1 2 -2 2 -1 
2 -2 2 -2 2 -1 3 -2 2 -1 2 -2 2 -1 2 -2 
2 -1 2 -2 3 -1 2 -2 2 -1 2 -2 2 -1 2 -2 
2 -1 3 -2 2 -1 2 -2 2 -1 2 -2 2 -1 2 -2 
3 -2 2 -1 2 -2 2 -1 2 -2 2 -1 2 -2 3 -1 
2 -2 2 -1 2 -2 2 -1 2 -2 2 -1 3 -2 2 -1 
2 -2 2 -1 2 -2 2 -1 2 -2 3 -1 2 -2 2 -1 
2 -2 2 -2 2 -1 2 -2 3 -1 2 -2 2 -1 2 -2 
2 -1 2 -2 2 -1 3 -2 2 -1 2 -2 2 -1 2 -2 
2 -1 2 -2 3 -1 2 -2 2 -1 2 -2 2 -1 2 -2 
2 -2 3 -1 2 -2 2 -1 2 -2 2 -1 2 -2 2 -1 
3 -2 2 -1 2 -2 4346 2851 100 MP stroke
2 -1 2 -2 2 -1 2 -2 3 -1 2 -2 2 -1 2 -2 
2 -1 2 -2 2 -1 3 -2 2 -1 2 -2 2 -2 2 -1 
2 -2 2 -1 3 -2 2 -1 2 -2 2 -1 2 -2 2 -1 
2 -2 3 -1 2 -2 2 -1 2 -2 2 -1 2 -2 2 -1 
3 -2 2 -1 2 -2 2 -1 2 -2 2 -2 2 -1 3 -2 
2 -1 2 -2 2 -1 2 -2 2 -1 2 -2 3 -1 2 -2 
2 -1 2 -2 2 -1 2 -2 2 -1 3 -2 2 -1 2 -2 
2 -1 2 -2 2 -1 2 -2 3 -1 2 -2 2 -2 2 -1 
2 -2 2 -1 2 -2 3 -1 2 -2 2 -1 2 -2 2 -1 
2 -2 2 -1 3 -2 2 -1 2 -2 2 -1 2 -2 2 -1 
2 -2 3 -1 2 -2 2 -1 2 -2 2 -2 2 -1 2 -2 
3 -1 2 -2 2 -1 2 -2 2 -1 2 -2 2 -1 3 -2 
2 -1 2 -2 2 -1 4134 3001 100 MP stroke
2 -2 2 -1 2 -2 3 -1 2 -2 2 -1 2 -2 2 -1 
2 -2 2 -1 3 -2 2 -2 2 -1 2 -2 2 -1 2 -2 
2 -1 2 -2 3 -1 2 -2 2 -1 2 -2 2 -1 2 -2 
2 -1 3 -2 2 -1 2 -2 2 -1 2 -2 2 -1 2 -2 
3 -1 2 -2 2 -2 2 -1 2 -2 2 -1 2 -2 3 -1 
2 -2 2 -1 2 -2 2 -1 2 -2 2 -1 3 -2 2 -1 
2 -2 2 -1 2 -2 2 -1 2 -2 3 -1 2 -2 2 -1 
2 -2 2 -1 2 -2 2 -2 3 -1 2 -2 2 -1 2 -2 
2 -1 2 -2 2 -1 3 -2 2 -1 2 -2 2 -1 2 -2 
2 -1 2 -2 3 -1 2 -2 2 -1 2 -2 2 -1 2 -2 
2 -1 3 -2 2 -1 2 -2 2 -2 2 -1 2 -2 2 -1 
3 -2 2 -1 2 -2 2 -1 2 -2 2 -1 2 -2 3 -1 
2 -2 2 -1 2 -2 3922 3152 100 MP stroke
2 -1 2 -2 2 -1 3 -2 2 -1 2 -2 2 -1 2 -2 
2 -2 2 -1 3 -2 2 -1 2 -2 2 -1 2 -2 2 -1 
2 -2 3 -1 2 -2 2 -1 2 -2 2 -1 2 -2 2 -1 
3 -2 2 -1 2 -2 2 -1 2 -2 2 -1 2 -2 3 -1 
2 -2 2 -2 2 -1 2 -2 2 -1 2 -2 3 -1 2 -2 
2 -1 2 -2 2 -1 2 -2 2 -1 3 -2 2 -1 2 -2 
2 -1 2 -2 2 -1 2 -2 3 -1 2 -2 2 -1 2 -2 
2 -2 2 -1 2 -2 3 -1 2 -2 2 -1 2 -2 2 -1 
2 -2 2 -1 3 -2 2 -1 2 -2 2 -1 2 -2 2 -1 
2 -2 3 -1 2 -2 2 -1 2 -2 2 -1 2 -2 2 -1 
3 -2 2 -2 2 -1 2 -2 2 -1 2 -2 2 -1 3 -2 
2 -1 2 -2 2 -1 2 -2 2 -1 2 -2 3 -1 2 -2 
2 -1 2 -2 2 -1 3710 3302 100 MP stroke
2 -2 2 -1 3 -2 2 -1 2 -2 2 -2 2 -1 2 -2 
2 -1 3 -2 2 -1 2 -2 2 -1 2 -2 2 -1 2 -2 
3 -1 2 -2 2 -1 2 -2 2 -1 2 -2 2 -1 3 -2 
2 -1 2 -2 2 -1 2 -2 2 -1 2 -2 3 -2 2 -1 
2 -2 2 -1 2 -2 2 -1 2 -2 3 -1 2 -2 2 -1 
2 -2 2 -1 2 -2 2 -1 3 -2 2 -1 2 -2 2 -1 
2 -2 2 -1 2 -2 3 -1 2 -2 2 -2 2 -1 2 -2 
2 -1 2 -2 3 -1 2 -2 2 -1 2 -2 2 -1 2 -2 
2 -1 3 -2 2 -1 2 -2 2 -1 2 -2 2 -1 2 -2 
3 -1 2 -2 2 -1 2 -2 2 -1 2 -2 2 -2 3 -1 
2 -2 2 -1 2 -2 2 -1 2 -2 2 -1 3 -2 2 -1 
2 -2 2 -1 2 -2 2 -1 2 -2 3 -1 2 -2 2 -1 
2 -2 2 -1 2 -2 3498 3453 100 MP stroke
2 -1 3 -2 2 -1 2 -2 2 -2 2 -1 2 -2 2 -1 
3 -2 2 -1 2 -2 2 -1 2 -2 2 -1 2 -2 3 -1 
2 -2 2 -1 2 -2 2 -1 2 -2 2 -1 3 -2 2 -1 
2 -2 2 -1 2 -2 2 -2 2 -1 3 -2 2 -1 2 -2 
2 -1 2 -2 2 -1 2 -2 2 -1 3 -2 2 -1 2 -2 
2 -1 2 -2 2 -1 2 -2 3 -1 2 -2 2 -1 2 -2 
2 -1 2 -2 2 -1 3 -2 2 -2 2 -1 2 -2 2 -1 
2 -2 2 -1 3 -2 2 -1 2 -2 2 -1 2 -2 2 -1 
2 -2 3 -1 2 -2 2 -1 2 -2 2 -1 2 -2 2 -1 
3 -2 2 -1 2 -2 2 -1 2 -2 2 -2 2 -1 3 -2 
2 -1 2 -2 2 -1 2 -2 2 -1 2 -2 3 -1 2 -2 
2 -1 2 -2 2 -1 2 -2 2 -1 3 -2 2 -1 2 -2 
2 -1 2 -2 2 -1 3286 3603 100 MP stroke
2 -2 3 -2 2 -1 2 -2 2 -1 2 -2 2 -1 2 -2 
3 -1 2 -2 2 -1 2 -2 2 -1 2 -2 2 -1 3 -2 
2 -1 2 -2 2 -1 2 -2 2 -1 2 -2 3 -1 2 -2 
2 -1 2 -2 2 -1 2 -2 2 -2 3 -1 2 -2 2 -1 
2 -2 2 -1 2 -2 2 -1 3 -2 2 -1 2 -2 2 -1 
2 -2 2 -1 2 -2 3 -1 2 -2 2 -1 2 -2 2 -1 
2 -2 2 -1 3 -2 2 -1 2 -2 2 -2 2 -1 2 -2 
2 -1 3 -2 2 -1 2 -2 2 -1 2 -2 2 -1 2 -2 
3 -1 2 -2 2 -1 2 -2 2 -1 2 -2 2 -1 3 -2 
2 -1 2 -2 2 -1 2 -2 2 -1 2 -2 3 -1 2 -2 
2 -2 2 -1 2 -2 2 -1 2 -2 3 -1 2 -2 2 -1 
2 -2 2 -1 2 -2 2 -1 3 -2 2 -1 2 -2 2 -1 
2 -2 2 -1 2 -2 3074 3754 100 MP stroke
3 -1 2 -2 2 -1 2 -2 2 -1 2 -2 2 -1 3 -2 
2 -2 2 -1 2 -2 2 -1 2 -2 2 -1 3 -2 2 -1 
2 -2 2 -1 2 -2 2 -1 2 -2 3 -1 2 -2 2 -1 
2 -2 2 -1 2 -2 2 -1 3 -2 2 -1 2 -2 2 -1 
2 -2 2 -1 2 -2 3 -1 2 -2 2 -1 2 -2 2 -1 
2 -2 2 -2 3 -1 2 -2 2 -1 2 -2 2 -1 2 -2 
2 -1 3 -2 2 -1 2 -2 2 -1 2 -2 2 -1 2 -2 
3 -1 2 -2 2 -1 2 -2 2 -1 2 -2 2 -1 3 -2 
2 -1 2 -2 2 -1 2 -2 2 -1 2 -2 3 -1 2 -2 
2 -1 2 -2 2 -1 2 -2 2 -1 3 -2 2 -1 2 -2 
2 -1 2 -2 2 -1 2 -2 3 -1 2 -2 2 -1 2 -2 
2 -1 2 -2 2 -1 3 -2 2 -1 2 -2 2 -1 2 -2 
2 -1 2 -2 3 -1 2861 3903 100 MP stroke
2 -2 2 -1 2 -2 2 -1 2 -2 2 -1 3 -2 2 -1 
2 -2 2 -1 2 -2 2 -1 2 -2 3 -1 2 -2 2 -1 
2 -2 2 -1 2 -2 2 -1 3 -2 2 -1 2 -2 2 -1 
2 -2 2 -1 2 -2 3 -1 2 -2 2 -1 2 -2 2 -1 
2 -2 2 -1 3 -2 2 -1 2 -2 2 -1 2 -2 2 -1 
2 -2 3 -1 2 -2 2 -1 2 -2 2 -1 2 -1 2 -2 
2 -1 3 -2 2 -1 2 -2 2 -1 2 -2 2 -1 2 -2 
3 -1 2 -2 2 -1 2 -2 2 -1 2 -2 2 -1 3 -1 
2 -2 2 -1 2 -2 2 -1 2 -2 2 -1 3 -2 2 -1 
2 -2 2 -1 2 -1 2 -2 2 -1 3 -2 2 -1 2 -2 
2 -1 2 -2 2 -1 2 -1 3 -2 2 -1 2 -2 2 -1 
2 -2 2 -1 2 -2 3 -1 2 -1 2 -2 2 -1 2 -2 
2 -1 2 -1 3 -2 2649 4049 100 MP stroke
2 -1 2 -2 2 -1 2 -2 2 -1 2 -1 3 -2 2 -1 
2 -2 2 -1 2 -1 2 -2 2 -1 3 -2 2 -1 2 -1 
2 -2 2 -1 2 -1 2 -2 3 -1 2 -2 2 -1 2 -1 
2 -2 2 -1 2 -1 3 -2 2 -1 2 -1 2 -2 2 -1 
2 -1 2 -2 3 -1 2 -1 2 -2 2 -1 2 -1 2 -2 
2 -1 3 -1 2 -2 2 -1 2 -1 2 -2 2 -1 2 -1 
3 -2 2 -1 2 -1 2 -1 2 -2 2 -1 2 -1 3 -1 
2 -2 2 -1 2 -1 2 -1 2 -2 2 -1 3 -1 2 -1 
2 -2 2 -1 2 -1 2 -1 2 -2 3 -1 2 -1 2 -1 
2 -1 2 -2 2 -1 2 -1 3 -1 2 -1 2 -1 2 -2 
2 -1 2 -1 2 -1 3 -1 2 -1 2 -1 2 -1 2 -2 
2 -1 2 -1 3 -1 2 -1 2 -1 2 -1 2 -1 2 -1 
2 -1 3 -1 2 -1 2437 4174 100 MP stroke
2 -1 2 -1 2 -2 2 -1 2 -1 3 -1 2 -1 2 -1 
2 0 2 -1 2 -1 2 -1 3 -1 2 -1 2 -1 2 -1 
2 -1 2 -1 2 -1 3 -1 2 -1 2 0 2 -1 2 -1 
2 -1 2 -1 3 -1 2 -1 2 0 2 -1 2 -1 2 -1 
2 -1 3 0 2 -1 2 -1 2 -1 2 0 2 -1 2 -1 
3 0 2 -1 2 -1 2 0 2 -1 2 -1 2 0 3 -1 
2 -1 2 0 2 -1 2 0 2 -1 2 -1 3 0 2 -1 
2 0 2 -1 2 0 2 -1 2 0 3 -1 2 0 2 -1 
2 0 2 0 2 -1 2 0 3 -1 2 0 2 0 2 -1 
2 0 2 0 2 -1 3 0 2 0 2 -1 2 0 2 0 
2 -1 2 0 3 0 2 0 2 0 2 -1 2 0 2 0 
2 0 3 0 2 -1 2 0 2 0 2 0 2 0 2 0 
3 0 2 0 2 -1 2225 4233 100 MP stroke
2 0 2 0 2 0 2 0 3 0 2 0 2 0 2 0 
2 0 2 0 2 0 3 0 2 0 2 0 2 0 2 0 
2 0 2 0 3 0 2 0 2 0 2 0 2 0 2 0 
2 0 3 0 2 0 2 0 2 0 2 0 2 0 2 0 
3 0 2 0 2 0 2 0 2 0 2 0 2 0 3 0 
2 0 2 0 2 0 2 0 2 0 2 0 3 0 2 0 
2 0 2 0 2 0 2 0 2 0 3 0 2 0 2 0 
2 0 2 0 2 0 2 0 3 0 2 0 2 0 2 0 
2 0 2 0 2 0 2 0 3 0 2 0 2 0 2 0 
2 0 2 0 2 0 3 0 2 0 2 0 2 0 2 0 
2 0 2 0 3 0 2 0 2 0 2 0 2 0 2 0 
2 0 3 0 2 0 2 0 2 0 2 0 2 0 2 0 
3 -1 2 0 2 0 2013 4234 100 MP stroke
2 0 2 0 2 0 2 0 3 0 2 0 2 0 2 0 
2 0 2 0 2 0 3 0 2 0 2 0 2 0 2 0 
2 0 2 0 3 0 2 0 2 0 2 0 2 0 2 0 
2 0 3 0 2 0 2 0 2 0 2 0 2 0 2 0 
3 0 2 0 2 0 2 0 2 0 2 0 2 0 3 0 
2 0 2 0 2 0 2 0 2 0 2 0 3 0 2 0 
2 0 2 0 2 0 2 0 2 0 3 0 2 0 2 0 
2 0 2 0 2 0 2 0 3 0 2 0 2 0 2 0 
2 0 2 0 2 -1 3 0 2 0 2 0 2 0 2 0 
2 0 2 0 3 0 2 0 2 0 2 0 2 0 2 0 
2 0 3 0 2 0 2 0 2 0 2 0 2 0 2 0 
3 0 2 0 2 0 2 0 2 0 2 0 2 0 3 0 
2 0 2 -1 2 0 1801 4236 100 MP stroke
2 0 2 0 2 0 3 0 2 0 2 0 2 0 2 0 
2 0 2 0 3 0 2 0 2 0 2 0 2 0 2 0 
2 0 3 0 2 -1 2 0 2 0 2 0 2 0 2 0 
3 0 2 0 2 0 2 0 2 0 2 0 2 0 3 0 
2 0 2 -1 2 0 2 0 2 0 2 0 3 0 2 0 
2 0 2 0 2 0 2 0 2 0 3 -1 2 0 2 0 
2 0 2 0 2 0 2 0 3 0 2 0 2 0 2 -1 
2 0 2 0 2 0 3 0 2 0 2 0 2 0 2 -1 
2 0 2 0 3 0 2 0 2 0 2 0 2 0 2 -1 
2 0 3 0 2 0 2 0 2 0 2 0 2 -1 2 0 
3 0 2 0 2 0 2 0 2 -1 2 0 2 0 3 0 
2 0 2 -1 2 0 2 0 2 0 2 0 3 -1 2 0 
2 0 2 0 2 0 1589 4246 100 MP stroke
2 -1 2 0 3 0 2 0 2 0 2 -1 2 0 2 0 
2 0 3 -1 2 0 2 0 2 0 2 -1 2 0 2 0 
3 -1 2 0 2 0 2 0 2 -1 2 0 2 0 3 -1 
2 0 2 0 2 -1 2 0 2 0 2 -1 3 0 2 0 
2 -1 2 0 2 0 2 -1 2 0 3 0 2 -1 2 0 
2 -1 2 0 2 0 2 -1 3 0 2 -1 2 0 2 -1 
2 0 2 -1 2 0 3 0 2 -1 2 0 2 -1 2 0 
2 -1 2 0 3 -1 2 0 2 -1 2 0 2 -1 2 -1 
2 0 3 -1 2 0 2 -1 2 0 2 -1 2 -1 2 0 
3 -1 2 0 2 -1 2 -1 2 0 2 -1 2 -1 2 0 
3 -1 2 -1 2 -1 2 0 2 -1 2 -1 2 0 3 -1 
2 -1 2 -1 2 -1 2 0 2 -1 2 -1 3 -1 2 -1 
2 0 2 -1 2 -1 1377 4294 100 MP stroke
2 -1 2 -1 3 -1 2 -1 2 -1 2 -1 2 -1 2 0 
2 -1 3 -1 2 -1 2 -1 2 -1 2 -1 2 -1 2 -1 
3 -1 2 -2 2 -1 2 -1 2 -1 2 -1 2 -1 3 -1 
2 -1 2 -1 2 -2 2 -1 2 -1 2 -1 3 -1 2 -2 
2 -1 2 -1 2 -1 2 -1 2 -2 3 -1 2 -1 2 -2 
2 -1 2 -1 2 -2 2 -1 3 -1 2 -2 2 -1 2 -1 
2 -2 2 -1 2 -2 3 -1 2 -1 2 -2 2 -1 2 -2 
2 -1 2 -2 3 -1 2 -2 2 -1 2 -2 2 -1 2 -2 
2 -1 3 -2 2 -1 2 -2 2 -1 2 -2 2 -1 2 -2 
3 -1 2 -2 2 -1 2 -2 2 -1 2 -2 2 -1 3 -2 
2 -1 2 -2 2 -1 2 -2 2 -1 2 -2 3 -1 2 -2 
2 -1 2 -2 2 -2 2 -1 2 -2 3 -1 2 -2 2 -1 
2 -2 2 -1 2 -2 1165 4425 100 MP stroke
2 -1 3 -2 2 -1 2 -2 2 -1 2 -2 2 -1 2 -2 
3 -1 2 -2 2 -1 2 -2 2 -1 2 -2 2 -2 3 -1 
2 -2 2 -1 2 -2 2 -1 2 -2 2 -1 3 -2 2 -1 
2 -2 2 -1 2 -2 2 -1 2 -2 3 -1 2 -2 2 -1 
2 -2 2 -1 2 -2 2 -1 3 -2 2 -1 2 -2 2 -2 
2 -1 2 -2 2 -1 3 -2 2 -1 2 -2 2 -1 2 -2 
2 -1 2 -2 3 -1 2 -2 2 -1 2 -2 2 -1 2 -2 
2 -1 3 -2 2 -1 2 -2 2 -1 2 -2 2 -2 2 -1 
3 -2 2 -1 2 -2 2 -1 2 -2 2 -1 2 -2 3 -1 
2 -2 2 -1 2 -2 2 -1 2 -2 2 -1 3 -2 2 -1 
2 -2 2 -1 2 -2 2 -1 2 -2 3 -1 2 -2 2 -2 
2 -1 2 -2 2 -1 2 -2 3 -1 2 -2 2 -1 2 -2 
2 -1 2 -2 2 -1 953 4575 100 MP stroke
3 -2 2 -1 2 -2 2 -1 2 -2 2 -1 2 -2 3 -1 
2 -2 2 -1 2 -2 2 -2 2 -1 2 -2 3 -1 2 -2 
2 -1 2 -2 2 -1 2 -2 2 -1 3 -2 2 -1 2 -2 
2 -1 0 -1 899 4614 27 MP stroke
/c9 { 0.000000 0.500000 0.000000 sr} bdef
c9
2 -2 2 -1 2 -2 3 -2 2 -1 2 -2 2 -2 2 -1 
2 -2 2 -2 3 -2 2 -1 2 -2 2 -2 2 -1 2 -2 
2 -2 3 -1 2 -2 2 -2 2 -1 2 -2 2 -2 2 -1 
3 -2 2 -2 2 -2 2 -1 2 -2 2 -2 2 -1 3 -2 
2 -2 2 -1 2 -2 2 -2 2 -1 2 -2 3 -2 2 -2 
2 -1 2 -2 2 -2 2 -1 2 -2 3 -2 2 -1 2 -2 
2 -2 2 -1 2 -2 2 -2 3 -1 2 -2 2 -2 2 -2 
2 -1 2 -2 2 -2 3 -1 2 -2 2 -2 2 -1 2 -2 
2 -2 2 -1 3 -2 2 -2 2 -2 2 -1 2 -2 2 -2 
2 -1 2 -2 3 -2 2 -1 2 -2 2 -2 2 -1 2 -2 
2 -2 3 -1 2 -2 2 -2 2 -2 2 -1 2 -2 2 -2 
3 -1 2 -2 2 -2 2 -1 2 -2 2 -2 2 -1 3 -2 
2 -2 2 -2 2 -1 6043 556 100 MP stroke
2 -2 2 -2 2 -1 3 -2 2 -2 2 -1 2 -2 2 -2 
2 -1 2 -2 3 -2 2 -1 2 -2 2 -2 2 -2 2 -1 
2 -2 3 -2 2 -1 2 -2 2 -2 2 -1 2 -2 2 -2 
3 -1 2 -2 2 -2 2 -2 2 -1 2 -2 2 -2 3 -1 
2 -2 2 -2 2 -1 2 -2 2 -2 2 -1 3 -2 2 -2 
2 -1 2 -2 2 -2 2 -2 2 -1 3 -2 2 -2 2 -1 
2 -2 2 -2 2 -1 2 -2 3 -2 2 -1 2 -2 2 -2 
2 -2 2 -1 2 -2 3 -2 2 -1 2 -2 2 -2 2 -1 
2 -2 2 -2 3 -1 2 -2 2 -2 2 -1 2 -2 2 -2 
2 -2 3 -1 2 -2 2 -2 2 -1 2 -2 2 -2 2 -1 
3 -2 2 -2 2 -1 2 -2 2 -2 2 -2 2 -1 3 -2 
2 -2 2 -1 2 -2 2 -2 2 -1 2 -2 3 -2 2 -1 
2 -2 2 -2 2 -1 5831 723 100 MP stroke
2 -2 2 -2 3 -2 2 -1 2 -2 2 -2 2 -1 2 -2 
2 -2 3 -1 2 -2 2 -2 2 -1 2 -2 2 -2 2 -2 
3 -1 2 -2 2 -2 2 -1 2 -2 2 -2 2 -1 3 -2 
2 -2 2 -1 2 -2 2 -2 2 -1 2 -2 3 -2 2 -2 
2 -1 2 -2 2 -2 2 -1 2 -2 3 -2 2 -1 2 -2 
2 -2 2 -1 2 -2 2 -2 3 -2 2 -1 2 -2 2 -2 
2 -1 2 -2 2 -2 3 -1 2 -2 2 -2 2 -1 2 -2 
2 -2 2 -1 3 -2 2 -2 2 -2 2 -1 2 -2 2 -2 
2 -1 3 -2 2 -2 2 -1 2 -2 2 -2 2 -1 2 -2 
3 -2 2 -2 2 -1 2 -2 2 -2 2 -1 2 -2 3 -2 
2 -1 2 -2 2 -2 2 -1 2 -2 2 -2 3 -1 2 -2 
2 -2 2 -2 2 -1 2 -2 2 -2 3 -1 2 -2 2 -2 
2 -1 2 -2 2 -2 5619 891 100 MP stroke
2 -1 3 -2 2 -2 2 -2 2 -1 2 -2 2 -2 2 -1 
3 -2 2 -2 2 -1 2 -2 2 -2 2 -1 2 -2 3 -2 
2 -1 2 -2 2 -2 2 -2 2 -1 2 -2 3 -2 2 -1 
2 -2 2 -2 2 -1 2 -2 2 -2 3 -1 2 -2 2 -2 
2 -2 2 -1 2 -2 2 -2 3 -1 2 -2 2 -2 2 -1 
2 -2 2 -2 2 -1 3 -2 2 -2 2 -1 2 -2 2 -2 
2 -2 2 -1 3 -2 2 -2 2 -1 2 -2 2 -2 2 -1 
2 -2 3 -2 2 -1 2 -2 2 -2 2 -2 2 -1 2 -2 
3 -2 2 -1 2 -2 2 -2 2 -1 2 -2 2 -2 3 -1 
2 -2 2 -2 2 -1 2 -2 2 -2 2 -2 3 -1 2 -2 
2 -2 2 -1 2 -2 2 -2 2 -1 2 -2 3 -2 2 -1 
2 -2 2 -2 2 -2 2 -1 2 -2 3 -2 2 -1 2 -2 
2 -2 2 -1 2 -2 5407 1058 100 MP stroke
2 -2 3 -1 2 -2 2 -2 2 -1 2 -2 2 -2 2 -2 
3 -1 2 -2 2 -2 2 -1 2 -2 2 -2 2 -1 3 -2 
2 -2 2 -1 2 -2 2 -2 2 -2 2 -1 3 -2 2 -2 
2 -1 2 -2 2 -2 2 -1 2 -2 3 -2 2 -1 2 -2 
2 -2 2 -1 2 -2 2 -2 3 -2 2 -1 2 -2 2 -2 
2 -1 2 -2 2 -2 3 -1 2 -2 2 -2 2 -1 2 -2 
2 -2 2 -2 3 -1 2 -2 2 -2 2 -1 2 -2 2 -2 
2 -1 3 -2 2 -2 2 -1 2 -2 2 -2 2 -2 2 -1 
3 -2 2 -2 2 -1 2 -2 2 -2 2 -1 2 -2 3 -2 
2 -1 2 -2 2 -2 2 -1 2 -2 2 -2 3 -2 2 -1 
2 -2 2 -2 2 -1 2 -2 2 -2 3 -1 2 -2 2 -2 
2 -1 2 -2 2 -2 2 -2 3 -1 2 -2 2 -2 2 -1 
2 -2 2 -2 2 -1 5195 1225 100 MP stroke
3 -2 2 -2 2 -1 2 -2 2 -2 2 -1 2 -2 3 -2 
2 -2 2 -1 2 -2 2 -2 2 -1 2 -2 3 -2 2 -1 
2 -2 2 -2 2 -1 2 -2 2 -2 3 -2 2 -1 2 -2 
2 -2 2 -1 2 -2 2 -2 3 -1 2 -2 2 -2 2 -1 
2 -2 2 -2 2 -1 3 -2 2 -2 2 -2 2 -1 2 -2 
2 -2 2 -1 3 -2 2 -2 2 -1 2 -2 2 -2 2 -1 
2 -2 3 -2 2 -2 2 -1 2 -2 2 -2 2 -1 2 -2 
3 -2 2 -1 2 -2 2 -2 2 -1 2 -2 2 -2 3 -1 
2 -2 2 -2 2 -2 2 -1 2 -2 2 -2 3 -1 2 -2 
2 -2 2 -1 2 -2 2 -2 2 -1 3 -2 2 -2 2 -2 
2 -1 2 -2 2 -2 2 -1 3 -2 2 -2 2 -1 2 -2 
2 -2 2 -1 2 -2 3 -2 2 -1 2 -2 2 -2 2 -2 
2 -1 2 -2 3 -2 4982 1393 100 MP stroke
2 -1 2 -2 2 -2 2 -1 2 -2 2 -2 3 -1 2 -2 
2 -2 2 -2 2 -1 2 -2 2 -2 3 -1 2 -2 2 -2 
2 -1 2 -2 2 -2 2 -1 3 -2 2 -2 2 -1 2 -2 
2 -2 2 -2 2 -1 3 -2 2 -2 2 -1 2 -2 2 -2 
2 -1 2 -2 3 -2 2 -1 2 -2 2 -2 2 -2 2 -1 
2 -2 3 -2 2 -1 2 -2 2 -2 2 -1 2 -2 2 -2 
3 -1 2 -2 2 -2 2 -1 2 -2 2 -2 2 -2 3 -1 
2 -2 2 -2 2 -1 2 -2 2 -2 2 -1 3 -2 2 -2 
2 -1 2 -2 2 -2 2 -2 2 -1 3 -2 2 -2 2 -1 
2 -2 2 -2 2 -1 2 -2 3 -2 2 -1 2 -2 2 -2 
2 -1 2 -2 2 -2 3 -2 2 -1 2 -2 2 -2 2 -1 
2 -2 2 -2 3 -1 2 -2 2 -2 2 -1 2 -2 2 -2 
2 -2 3 -1 2 -2 4770 1560 100 MP stroke
2 -2 2 -1 2 -2 2 -2 2 -1 2 -2 3 -2 2 -1 
2 -2 2 -2 2 -1 2 -2 2 -2 3 -2 2 -1 2 -2 
2 -2 2 -1 2 -2 2 -2 3 -1 2 -2 2 -2 2 -1 
2 -2 2 -2 2 -2 3 -1 2 -2 2 -2 2 -1 2 -2 
2 -2 2 -1 3 -2 2 -2 2 -1 2 -2 2 -2 2 -1 
2 -2 3 -2 2 -2 2 -1 2 -2 2 -2 2 -1 2 -2 
3 -2 2 -1 2 -2 2 -2 2 -1 2 -2 2 -2 3 -2 
2 -1 2 -2 2 -2 2 -1 2 -2 2 -2 3 -1 2 -2 
2 -2 2 -1 2 -2 2 -2 2 -1 3 -2 2 -2 2 -2 
2 -1 2 -2 2 -2 2 -1 3 -2 2 -2 2 -1 2 -2 
2 -2 2 -1 2 -2 3 -2 2 -2 2 -1 2 -2 2 -2 
2 -1 2 -2 3 -2 2 -1 2 -2 2 -2 2 -1 2 -2 
2 -2 3 -1 2 -2 4558 1727 100 MP stroke
2 -2 2 -2 2 -1 2 -2 2 -2 3 -1 2 -2 2 -2 
2 -1 2 -2 2 -2 2 -1 3 -2 2 -2 2 -2 2 -1 
2 -2 2 -2 2 -1 3 -2 2 -2 2 -1 2 -2 2 -2 
2 -1 2 -2 3 -2 2 -1 2 -2 2 -2 2 -2 2 -1 
2 -2 3 -2 2 -1 2 -2 2 -2 2 -1 2 -2 2 -2 
3 -1 2 -2 2 -2 2 -2 2 -1 2 -2 2 -2 3 -1 
2 -2 2 -2 2 -1 2 -2 2 -2 2 -1 3 -2 2 -2 
2 -1 2 -2 2 -2 2 -2 2 -1 3 -2 2 -2 2 -1 
2 -2 2 -2 2 -1 2 -2 3 -2 2 -1 2 -2 2 -2 
2 -2 2 -1 2 -2 3 -2 2 -1 2 -2 2 -2 2 -1 
2 -2 2 -2 3 -1 2 -2 2 -2 2 -1 2 -2 2 -2 
2 -2 3 -1 2 -2 2 -2 2 -1 2 -2 2 -2 2 -1 
3 -2 2 -2 2 -1 4346 1894 100 MP stroke
2 -2 2 -2 2 -2 2 -1 3 -2 2 -2 2 -1 2 -2 
2 -2 2 -1 2 -2 3 -2 2 -1 2 -2 2 -2 2 -1 
2 -2 2 -2 3 -2 2 -1 2 -2 2 -2 2 -1 2 -2 
2 -2 3 -1 2 -2 2 -2 2 -1 2 -2 2 -2 2 -2 
3 -1 2 -2 2 -2 2 -1 2 -2 2 -2 2 -1 3 -2 
2 -2 2 -1 2 -2 2 -2 2 -2 2 -1 3 -2 2 -2 
2 -1 2 -2 2 -2 2 -1 2 -2 3 -2 2 -1 2 -2 
2 -2 2 -1 2 -2 2 -2 3 -2 2 -1 2 -2 2 -2 
2 -1 2 -2 2 -2 3 -1 2 -2 2 -2 2 -1 2 -2 
2 -2 2 -2 3 -1 2 -2 2 -2 2 -1 2 -2 2 -2 
2 -1 3 -2 2 -2 2 -1 2 -2 2 -2 2 -1 2 -2 
3 -2 2 -2 2 -1 2 -2 2 -2 2 -1 2 -2 3 -2 
2 -1 2 -2 2 -2 4134 2062 100 MP stroke
2 -1 2 -2 2 -2 3 -2 2 -1 2 -2 2 -2 2 -1 
2 -2 2 -2 3 -1 2 -2 2 -2 2 -1 2 -2 2 -2 
2 -1 2 -2 3 -2 2 -2 2 -1 2 -2 2 -2 2 -1 
2 -2 3 -2 2 -1 2 -2 2 -2 2 -1 2 -2 2 -2 
3 -2 2 -1 2 -2 2 -2 2 -1 2 -2 2 -2 3 -1 
2 -2 2 -2 2 -1 2 -2 2 -2 2 -1 3 -2 2 -2 
2 -2 2 -1 2 -2 2 -2 2 -1 3 -2 2 -2 2 -1 
2 -2 2 -2 2 -1 2 -2 3 -2 2 -2 2 -1 2 -2 
2 -2 2 -1 2 -2 3 -2 2 -1 2 -2 2 -2 2 -1 
2 -2 2 -2 3 -1 2 -2 2 -2 2 -2 2 -1 2 -2 
2 -2 3 -1 2 -2 2 -2 2 -1 2 -2 2 -2 2 -1 
3 -2 2 -2 2 -2 2 -1 2 -2 2 -2 2 -1 3 -2 
2 -2 2 -1 2 -2 3922 2229 100 MP stroke
2 -2 2 -1 2 -2 3 -2 2 -1 2 -2 2 -2 2 -2 
2 -1 2 -2 3 -2 2 -1 2 -2 2 -2 2 -1 2 -2 
2 -2 3 -1 2 -2 2 -2 2 -2 2 -1 2 -2 2 -2 
3 -1 2 -2 2 -2 2 -1 2 -2 2 -2 2 -1 3 -2 
2 -2 2 -1 2 -2 2 -2 2 -2 2 -1 3 -2 2 -2 
2 -1 2 -2 2 -2 2 -1 2 -2 3 -2 2 -1 2 -2 
2 -2 2 -2 2 -1 2 -2 3 -2 2 -1 2 -2 2 -2 
2 -1 2 -2 2 -2 3 -1 2 -2 2 -2 2 -1 2 -2 
2 -2 2 -2 3 -1 2 -2 2 -2 2 -1 2 -2 2 -2 
2 -1 3 -2 2 -2 2 -1 2 -2 2 -2 2 -2 2 -1 
3 -2 2 -2 2 -1 2 -2 2 -2 2 -1 2 -2 3 -2 
2 -1 2 -2 2 -2 2 -1 2 -2 2 -2 3 -2 2 -1 
2 -2 2 -2 2 -1 3710 2396 100 MP stroke
2 -2 2 -2 3 -1 2 -2 2 -2 2 -1 2 -2 2 -2 
2 -2 3 -1 2 -2 2 -2 2 -1 2 -2 2 -2 2 -1 
3 -2 2 -2 2 -1 2 -2 2 -2 2 -1 2 -2 3 -2 
2 -2 2 -1 2 -2 2 -2 2 -1 2 -2 3 -2 2 -1 
2 -2 2 -2 2 -1 2 -2 2 -2 3 -2 2 -1 2 -2 
2 -2 2 -1 2 -2 2 -2 3 -1 2 -2 2 -2 2 -1 
2 -2 2 -2 2 -1 3 -2 2 -2 2 -2 2 -1 2 -2 
2 -2 2 -1 3 -2 2 -2 2 -1 2 -2 2 -2 2 -1 
2 -2 3 -2 2 -2 2 -1 2 -2 2 -2 2 -1 2 -2 
3 -2 2 -1 2 -2 2 -2 2 -1 2 -2 2 -2 3 -1 
2 -2 2 -2 2 -2 2 -1 2 -2 2 -2 3 -1 2 -2 
2 -2 2 -1 2 -2 2 -2 2 -1 3 -2 2 -2 2 -2 
2 -1 2 -2 2 -2 3498 2564 100 MP stroke
2 -1 3 -2 2 -2 2 -1 2 -2 2 -2 2 -1 2 -2 
3 -2 2 -1 2 -2 2 -2 2 -2 2 -1 2 -2 3 -2 
2 -1 2 -2 2 -2 2 -1 2 -2 2 -2 3 -1 2 -2 
2 -2 2 -2 2 -1 2 -2 2 -2 3 -1 2 -2 2 -2 
2 -1 2 -2 2 -2 2 -1 2 -2 3 -2 2 -1 2 -2 
2 -2 2 -2 2 -1 2 -2 3 -2 2 -1 2 -2 2 -2 
2 -1 2 -2 2 -2 3 -1 2 -2 2 -2 2 -2 2 -1 
2 -2 2 -2 3 -1 2 -2 2 -2 2 -1 2 -2 2 -2 
2 -1 3 -2 2 -2 2 -1 2 -2 2 -2 2 -2 2 -1 
3 -2 2 -2 2 -1 2 -2 2 -2 2 -1 2 -2 3 -2 
2 -1 2 -2 2 -2 2 -2 2 -1 2 -2 3 -2 2 -1 
2 -2 2 -2 2 -1 2 -2 2 -2 3 -1 2 -2 2 -2 
2 -1 2 -2 2 -2 3286 2731 100 MP stroke
2 -2 3 -1 2 -2 2 -2 2 -1 2 -2 2 -2 2 -1 
3 -2 2 -2 2 -1 2 -2 2 -2 2 -2 2 -1 3 -2 
2 -2 2 -1 2 -2 2 -2 2 -1 2 -2 3 -2 2 -1 
2 -2 2 -2 2 -1 2 -2 2 -2 3 -2 2 -1 2 -2 
2 -2 2 -1 2 -2 2 -2 3 -1 2 -2 2 -2 2 -1 
2 -2 2 -2 2 -2 3 -1 2 -2 2 -2 2 -1 2 -2 
2 -2 2 -1 3 -2 2 -2 2 -1 2 -2 2 -2 2 -2 
2 -1 3 -2 2 -2 2 -1 2 -2 2 -2 2 -1 2 -2 
3 -2 2 -1 2 -2 2 -2 2 -1 2 -2 2 -2 3 -2 
2 -1 2 -2 2 -2 2 -1 2 -2 2 -2 3 -1 2 -2 
2 -2 2 -1 2 -2 2 -2 2 -2 3 -1 2 -2 2 -2 
2 -1 2 -2 2 -2 2 -1 3 -2 2 -2 2 -1 2 -2 
2 -2 2 -1 2 -2 3074 2898 100 MP stroke
3 -2 2 -2 2 -1 2 -2 2 -2 2 -1 2 -2 3 -2 
2 -1 2 -2 2 -2 2 -1 2 -2 2 -2 3 -2 2 -1 
2 -2 2 -2 2 -1 2 -2 2 -2 3 -1 2 -2 2 -2 
2 -1 2 -2 2 -2 2 -1 3 -2 2 -2 2 -2 2 -1 
2 -2 2 -2 2 -1 3 -2 2 -2 2 -1 2 -2 2 -2 
2 -1 2 -2 3 -2 2 -2 2 -1 2 -2 2 -2 2 -1 
2 -2 3 -2 2 -1 2 -2 2 -2 2 -1 2 -2 2 -2 
3 -1 2 -2 2 -2 2 -2 2 -1 2 -2 2 -2 3 -1 
2 -2 2 -2 2 -1 2 -2 2 -2 2 -1 3 -2 2 -2 
2 -2 2 -1 2 -2 2 -2 2 -1 3 -2 2 -2 2 -1 
2 -2 2 -2 2 -1 2 -2 3 -2 2 -1 2 -2 2 -2 
2 -2 2 -1 2 -2 3 -2 2 -1 2 -2 2 -2 2 -1 
2 -2 2 -2 3 -1 2861 3065 100 MP stroke
2 -2 2 -2 2 -2 2 -1 2 -2 2 -2 3 -1 2 -2 
2 -2 2 -1 2 -2 2 -2 2 -1 3 -2 2 -2 2 -1 
2 -2 2 -2 2 -2 2 -1 3 -2 2 -2 2 -1 2 -2 
2 -2 2 -1 2 -2 3 -2 2 -1 2 -2 2 -2 2 -2 
2 -1 2 -2 3 -2 2 -1 2 -2 2 -2 2 -1 2 -2 
2 -2 3 -1 2 -2 2 -2 2 -1 2 -2 2 -2 2 -2 
2 -1 3 -2 2 -2 2 -1 2 -2 2 -2 2 -1 2 -2 
3 -2 2 -1 2 -2 2 -2 2 -2 2 -1 2 -2 3 -2 
2 -1 2 -2 2 -2 2 -1 2 -2 2 -2 3 -1 2 -2 
2 -2 2 -1 2 -2 2 -2 2 -2 3 -1 2 -2 2 -2 
2 -1 2 -2 2 -2 2 -1 3 -2 2 -2 2 -1 2 -2 
2 -2 2 -2 2 -1 3 -2 2 -2 2 -1 2 -2 2 -2 
2 -1 2 -2 3 -2 2649 3233 100 MP stroke
2 -1 2 -2 2 -2 2 -1 2 -2 2 -2 3 -2 2 -1 
2 -2 2 -2 2 -1 2 -2 2 -2 3 -1 2 -2 2 -2 
2 -1 2 -2 2 -2 2 -2 3 -1 2 -2 2 -2 2 -1 
2 -2 2 -2 2 -1 3 -2 2 -2 2 -1 2 -2 2 -2 
2 -1 2 -2 3 -2 2 -2 2 -1 2 -2 2 -2 2 -1 
2 -2 3 -2 2 -1 2 -2 2 -2 2 -1 2 -2 2 -2 
3 -2 2 -1 2 -2 2 -2 2 -1 2 -2 2 -2 3 -1 
2 -2 2 -2 2 -1 2 -2 2 -2 2 -1 3 -2 2 -2 
2 -2 2 -1 2 -2 2 -2 2 -1 3 -2 2 -2 2 -1 
2 -2 2 -2 2 -1 2 -2 3 -2 2 -2 2 -1 2 -2 
2 -2 2 -1 2 -2 3 -2 2 -1 2 -2 2 -2 2 -1 
2 -2 2 -2 3 -1 2 -2 2 -2 2 -2 2 -1 2 -2 
2 -2 3 -1 2 -2 2437 3400 100 MP stroke
2 -2 2 -1 2 -2 2 -2 2 -1 3 -2 2 -2 2 -2 
2 -1 2 -2 2 -2 2 -1 3 -2 2 -2 2 -1 2 -2 
2 -2 2 -1 2 -2 3 -2 2 -1 2 -2 2 -2 2 -2 
2 -1 2 -2 3 -2 2 -1 2 -2 2 -2 2 -1 2 -2 
2 -2 3 -1 2 -2 2 -2 2 -2 2 -1 2 -2 2 -2 
3 -1 2 -2 2 -2 2 -1 2 -2 2 -2 2 -1 3 -2 
2 -2 2 -1 2 -2 2 -2 2 -2 2 -1 3 -2 2 -2 
2 -1 2 -2 2 -2 2 -1 2 -2 3 -2 2 -1 2 -2 
2 -2 2 -2 2 -1 2 -2 3 -2 2 -1 2 -2 2 -2 
2 -1 2 -2 2 -2 3 -1 2 -2 2 -2 2 -1 2 -2 
2 -2 2 -2 3 -1 2 -2 2 -2 2 -1 2 -2 2 -2 
2 -1 3 -2 2 -2 2 -1 2 -2 2 -2 2 -2 2 -1 
3 -2 2 -2 2 -1 2225 3567 100 MP stroke
2 -2 2 -2 2 -1 2 -2 3 -2 2 -1 2 -2 2 -2 
2 -1 2 -2 2 -2 3 -2 2 -1 2 -2 2 -2 2 -1 
2 -2 2 -2 3 -1 2 -2 2 -2 2 -1 2 -2 2 -2 
2 -2 3 -1 2 -2 2 -2 2 -1 2 -2 2 -2 2 -1 
3 -2 2 -2 2 -1 2 -2 2 -2 2 -1 2 -2 3 -2 
2 -2 2 -1 2 -2 2 -2 2 -1 2 -2 3 -2 2 -1 
2 -2 2 -2 2 -1 2 -2 2 -2 3 -2 2 -1 2 -2 
2 -2 2 -1 2 -2 2 -2 3 -1 2 -2 2 -2 2 -1 
2 -2 2 -2 2 -2 2 -1 3 -2 2 -2 2 -1 2 -2 
2 -2 2 -1 2 -2 3 -2 2 -1 2 -2 2 -2 2 -1 
2 -2 2 -2 3 -2 2 -1 2 -2 2 -2 2 -1 2 -2 
2 -2 3 -1 2 -2 2 -2 2 -1 2 -2 2 -2 2 -2 
3 -1 2 -2 2 -2 2013 3735 100 MP stroke
2 -1 2 -2 2 -2 2 -1 3 -2 2 -2 2 -1 2 -2 
2 -2 2 -1 2 -2 3 -2 2 -2 2 -1 2 -2 2 -2 
2 -1 2 -2 3 -2 2 -1 2 -2 2 -2 2 -1 2 -2 
2 -2 3 -2 2 -1 2 -2 2 -2 2 -1 2 -2 2 -2 
3 -1 2 -2 2 -2 2 -1 2 -2 2 -2 2 -1 3 -2 
2 -2 2 -2 2 -1 2 -2 2 -2 2 -1 3 -2 2 -2 
2 -1 2 -2 2 -2 2 -1 2 -2 3 -2 2 -2 2 -1 
2 -2 2 -2 2 -1 2 -2 3 -2 2 -1 2 -2 2 -2 
2 -1 2 -2 2 -2 3 -1 2 -2 2 -2 2 -2 2 -1 
2 -2 2 -2 3 -1 2 -2 2 -2 2 -1 2 -2 2 -2 
2 -1 3 -2 2 -2 2 -2 2 -1 2 -2 2 -2 2 -1 
3 -2 2 -2 2 -1 2 -2 2 -2 2 -1 2 -2 3 -2 
2 -1 2 -2 2 -2 1801 3902 100 MP stroke
2 -2 2 -1 2 -2 3 -2 2 -1 2 -2 2 -2 2 -1 
2 -2 2 -2 3 -1 2 -2 2 -2 2 -2 2 -1 2 -2 
2 -2 3 -1 2 -2 2 -2 2 -1 2 -2 2 -2 2 -1 
3 -2 2 -2 2 -1 2 -2 2 -2 2 -2 2 -1 3 -2 
2 -2 2 -1 2 -2 2 -2 2 -1 2 -2 3 -2 2 -1 
2 -2 2 -2 2 -2 2 -1 2 -2 3 -2 2 -1 2 -2 
2 -2 2 -1 2 -2 2 -2 3 -1 2 -2 2 -2 2 -1 
2 -2 2 -2 2 -2 3 -1 2 -2 2 -2 2 -1 2 -2 
2 -2 2 -1 3 -2 2 -2 2 -1 2 -2 2 -2 2 -2 
2 -1 3 -2 2 -2 2 -1 2 -2 2 -2 2 -1 2 -2 
3 -2 2 -1 2 -2 2 -2 2 -1 2 -2 2 -2 3 -2 
2 -1 2 -2 2 -2 2 -1 2 -2 2 -2 3 -1 2 -2 
2 -2 2 -1 2 -2 1589 4069 100 MP stroke
2 -2 2 -2 3 -1 2 -2 2 -2 2 -1 2 -2 2 -2 
2 -1 3 -2 2 -2 2 -1 2 -2 2 -2 2 -1 2 -2 
3 -2 2 -2 2 -1 2 -2 2 -2 2 -1 2 -2 3 -2 
2 -1 2 -2 2 -2 2 -1 2 -2 2 -2 3 -2 2 -1 
2 -2 2 -2 2 -1 2 -2 2 -2 3 -1 2 -2 2 -2 
2 -1 2 -2 2 -2 2 -1 3 -2 2 -2 2 -2 2 -1 
2 -2 2 -2 2 -1 3 -2 2 -2 2 -1 2 -2 2 -2 
2 -1 2 -2 3 -2 2 -2 2 -1 2 -2 2 -2 2 -1 
2 -2 3 -2 2 -1 2 -2 2 -2 2 -1 2 -2 2 -2 
3 -1 2 -2 2 -2 2 -2 2 -1 2 -2 2 -2 2 -1 
3 -2 2 -2 2 -1 2 -2 2 -2 2 -1 2 -2 3 -2 
2 -2 2 -1 2 -2 2 -2 2 -1 2 -2 3 -2 2 -1 
2 -2 2 -2 2 -1 1377 4236 100 MP stroke
2 -2 2 -2 3 -1 2 -2 2 -2 2 -2 2 -1 2 -2 
2 -2 3 -1 2 -2 2 -2 2 -1 2 -2 2 -2 2 -1 
3 -2 2 -2 2 -2 2 -1 2 -2 2 -2 2 -1 3 -2 
2 -2 2 -1 2 -2 2 -2 2 -1 2 -2 3 -2 2 -1 
2 -2 2 -2 2 -2 2 -1 2 -2 3 -2 2 -1 2 -2 
2 -2 2 -1 2 -2 2 -2 3 -1 2 -2 2 -2 2 -2 
2 -1 2 -2 2 -2 3 -1 2 -2 2 -2 2 -1 2 -2 
2 -2 2 -1 3 -2 2 -2 2 -1 2 -2 2 -2 2 -2 
2 -1 3 -2 2 -2 2 -1 2 -2 2 -2 2 -1 2 -2 
3 -2 2 -1 2 -2 2 -2 2 -2 2 -1 2 -2 3 -2 
2 -1 2 -2 2 -2 2 -1 2 -2 2 -2 3 -1 2 -2 
2 -2 2 -1 2 -2 2 -2 2 -2 3 -1 2 -2 2 -2 
2 -1 2 -2 2 -2 1165 4404 100 MP stroke
2 -1 3 -2 2 -2 2 -1 2 -2 2 -2 2 -2 2 -1 
3 -2 2 -2 2 -1 2 -2 2 -2 2 -1 2 -2 3 -2 
2 -1 2 -2 2 -2 2 -1 2 -2 2 -2 3 -2 2 -1 
2 -2 2 -2 2 -1 2 -2 2 -2 3 -1 2 -2 2 -2 
2 -1 2 -2 2 -2 2 -2 3 -1 2 -2 2 -2 2 -1 
2 -2 2 -2 2 -1 3 -2 2 -2 2 -1 2 -2 2 -2 
2 -1 2 -2 3 -2 2 -2 2 -1 2 -2 2 -2 2 -1 
2 -2 3 -2 2 -1 2 -2 2 -2 2 -1 2 -2 2 -2 
3 -2 2 -1 2 -2 2 -2 2 -1 2 -2 2 -2 3 -1 
2 -2 2 -2 2 -1 2 -2 2 -2 2 -2 3 -1 2 -2 
2 -2 2 -1 2 -2 2 -2 2 -1 3 -2 2 -2 2 -1 
2 -2 2 -2 2 -1 2 -2 3 -2 2 -2 2 -1 2 -2 
2 -2 2 -1 2 -2 953 4571 100 MP stroke
3 -2 2 -1 2 -2 2 -2 2 -1 2 -2 2 -2 3 -2 
2 -1 2 -2 2 -2 2 -1 2 -2 2 -2 3 -1 2 -2 
2 -2 2 -1 2 -2 2 -2 2 -1 3 -2 2 -2 2 -2 
2 -1 0 -1 899 4614 27 MP stroke
gr

c9
0 sg
3383 4903 mt 
(time [s]) s
 582 2826 mt  -90 rotate
(distance [m]) s
90 rotate
3313  293 mt 
(Distances) s
 882 4658 mt 
( ) s
6239  430 mt 
( ) s
1 sg
0 334 879 0 0 -334 5317 782 4 MP
PP
-879 0 0 334 879 0 0 -334 5317 782 5 MP stroke
4 w
DO
SO
6 w
0 sg
5317  782 mt 6196  782 L
5317  448 mt 6196  448 L
5317  782 mt 5317  448 L
6196  782 mt 6196  448 L
5317  782 mt 6196  782 L
5317  782 mt 5317  448 L
5317  782 mt 6196  782 L
5317  448 mt 6196  448 L
5317  782 mt 5317  448 L
6196  782 mt 6196  448 L
5762  584 mt 
(robot 1) s
gs 5317 448 880 335 MR c np
c8
341 0 5385 541 2 MP stroke
gr

c8
0 sg
5762  731 mt 
(robot 2) s
gs 5317 448 880 335 MR c np
c9
341 0 5385 688 2 MP stroke
gr

c9

end %%Color Dict

eplot
%%EndObject

epage
end

showpage

%%Trailer
%%EOF
