%!PS-Adobe-2.0 EPSF-1.2
%%Creator: MATLAB, The MathWorks, Inc. Version 8.1.0.604 (R2013a). Operating System: Linux 4.8.2-040802-generic #201610161339 SMP Sun Oct 16 17:41:46 UTC 2016 x86_64.
%%Title: ./states.eps
%%CreationDate: 11/05/2016  15:42:53
%%DocumentNeededFonts: Helvetica
%%DocumentProcessColors: Cyan Magenta Yellow Black
%%Extensions: CMYK
%%Pages: 1
%%BoundingBox:    58   199   551   602
%%EndComments

%%BeginProlog
% MathWorks dictionary
/MathWorks 160 dict begin
% definition operators
/bdef {bind def} bind def
/ldef {load def} bind def
/xdef {exch def} bdef
/xstore {exch store} bdef
% operator abbreviations
/c  /clip ldef
/cc /concat ldef
/cp /closepath ldef
/gr /grestore ldef
/gs /gsave ldef
/mt /moveto ldef
/np /newpath ldef
/cm /currentmatrix ldef
/sm /setmatrix ldef
/rm /rmoveto ldef
/rl /rlineto ldef
/s {show newpath} bdef
/sc {setcmykcolor} bdef
/sr /setrgbcolor ldef
/sg /setgray ldef
/w /setlinewidth ldef
/j /setlinejoin ldef
/cap /setlinecap ldef
/rc {rectclip} bdef
/rf {rectfill} bdef
% page state control
/pgsv () def
/bpage {/pgsv save def} bdef
/epage {pgsv restore} bdef
/bplot /gsave ldef
/eplot {stroke grestore} bdef
% orientation switch
/portraitMode 0 def /landscapeMode 1 def /rotateMode 2 def
% coordinate system mappings
/dpi2point 0 def
% font control
/FontSize 0 def
/FMS {/FontSize xstore findfont [FontSize 0 0 FontSize neg 0 0]
  makefont setfont} bdef
/reencode {exch dup where {pop load} {pop StandardEncoding} ifelse
  exch dup 3 1 roll findfont dup length dict begin
  { 1 index /FID ne {def}{pop pop} ifelse } forall
  /Encoding exch def currentdict end definefont pop} bdef
/isroman {findfont /CharStrings get /Agrave known} bdef
/FMSR {3 1 roll 1 index dup isroman {reencode} {pop pop} ifelse
  exch FMS} bdef
/csm {1 dpi2point div -1 dpi2point div scale neg translate
 dup landscapeMode eq {pop -90 rotate}
  {rotateMode eq {90 rotate} if} ifelse} bdef
% line types: solid, dotted, dashed, dotdash
/SO { [] 0 setdash } bdef
/DO { [.5 dpi2point mul 4 dpi2point mul] 0 setdash } bdef
/DA { [6 dpi2point mul] 0 setdash } bdef
/DD { [.5 dpi2point mul 4 dpi2point mul 6 dpi2point mul 4
  dpi2point mul] 0 setdash } bdef
% macros for lines and objects
/L {lineto stroke} bdef
/MP {3 1 roll moveto 1 sub {rlineto} repeat} bdef
/AP {{rlineto} repeat} bdef
/PDlw -1 def
/W {/PDlw currentlinewidth def setlinewidth} def
/PP {closepath eofill} bdef
/DP {closepath stroke} bdef
/MR {4 -2 roll moveto dup  0 exch rlineto exch 0 rlineto
  neg 0 exch rlineto closepath} bdef
/FR {MR stroke} bdef
/PR {MR fill} bdef
/L1i {{currentfile picstr readhexstring pop} image} bdef
/tMatrix matrix def
/MakeOval {newpath tMatrix currentmatrix pop translate scale
0 0 1 0 360 arc tMatrix setmatrix} bdef
/FO {MakeOval stroke} bdef
/PO {MakeOval fill} bdef
/PD {currentlinewidth 2 div 0 360 arc fill
   PDlw -1 eq not {PDlw w /PDlw -1 def} if} def
/FA {newpath tMatrix currentmatrix pop translate scale
  0 0 1 5 -2 roll arc tMatrix setmatrix stroke} bdef
/PA {newpath tMatrix currentmatrix pop	translate 0 0 moveto scale
  0 0 1 5 -2 roll arc closepath tMatrix setmatrix fill} bdef
/FAn {newpath tMatrix currentmatrix pop translate scale
  0 0 1 5 -2 roll arcn tMatrix setmatrix stroke} bdef
/PAn {newpath tMatrix currentmatrix pop translate 0 0 moveto scale
  0 0 1 5 -2 roll arcn closepath tMatrix setmatrix fill} bdef
/vradius 0 def /hradius 0 def /lry 0 def
/lrx 0 def /uly 0 def /ulx 0 def /rad 0 def
/MRR {/vradius xdef /hradius xdef /lry xdef /lrx xdef /uly xdef
  /ulx xdef newpath tMatrix currentmatrix pop ulx hradius add uly
  vradius add translate hradius vradius scale 0 0 1 180 270 arc 
  tMatrix setmatrix lrx hradius sub uly vradius add translate
  hradius vradius scale 0 0 1 270 360 arc tMatrix setmatrix
  lrx hradius sub lry vradius sub translate hradius vradius scale
  0 0 1 0 90 arc tMatrix setmatrix ulx hradius add lry vradius sub
  translate hradius vradius scale 0 0 1 90 180 arc tMatrix setmatrix
  closepath} bdef
/FRR {MRR stroke } bdef
/PRR {MRR fill } bdef
/MlrRR {/lry xdef /lrx xdef /uly xdef /ulx xdef /rad lry uly sub 2 div def
  newpath tMatrix currentmatrix pop ulx rad add uly rad add translate
  rad rad scale 0 0 1 90 270 arc tMatrix setmatrix lrx rad sub lry rad
  sub translate rad rad scale 0 0 1 270 90 arc tMatrix setmatrix
  closepath} bdef
/FlrRR {MlrRR stroke } bdef
/PlrRR {MlrRR fill } bdef
/MtbRR {/lry xdef /lrx xdef /uly xdef /ulx xdef /rad lrx ulx sub 2 div def
  newpath tMatrix currentmatrix pop ulx rad add uly rad add translate
  rad rad scale 0 0 1 180 360 arc tMatrix setmatrix lrx rad sub lry rad
  sub translate rad rad scale 0 0 1 0 180 arc tMatrix setmatrix
  closepath} bdef
/FtbRR {MtbRR stroke } bdef
/PtbRR {MtbRR fill } bdef
/stri 6 array def /dtri 6 array def
/smat 6 array def /dmat 6 array def
/tmat1 6 array def /tmat2 6 array def /dif 3 array def
/asub {/ind2 exch def /ind1 exch def dup dup
  ind1 get exch ind2 get sub exch } bdef
/tri_to_matrix {
  2 0 asub 3 1 asub 4 0 asub 5 1 asub
  dup 0 get exch 1 get 7 -1 roll astore } bdef
/compute_transform {
  dmat dtri tri_to_matrix tmat1 invertmatrix 
  smat stri tri_to_matrix tmat2 concatmatrix } bdef
/ds {stri astore pop} bdef
/dt {dtri astore pop} bdef
/db {2 copy /cols xdef /rows xdef mul dup 3 mul string
  currentfile exch readhexstring pop
  dup 0 3 index getinterval /rbmap xdef
  dup 2 index dup getinterval /gbmap xdef
  1 index dup 2 mul exch getinterval /bbmap xdef pop pop}bdef
/it {gs np dtri aload pop moveto lineto lineto cp c
  cols rows 8 compute_transform 
  rbmap gbmap bbmap true 3 colorimage gr}bdef
/il {newpath moveto lineto stroke}bdef
currentdict end def
%%EndProlog

%%BeginSetup
MathWorks begin

0 cap

end
%%EndSetup

%%Page: 1 1
%%BeginPageSetup
%%PageBoundingBox:    58   199   551   602
MathWorks begin
bpage
%%EndPageSetup

%%BeginObject: obj1
bplot

/dpi2point 12 def
portraitMode 0216 7344 csm

  480   110  5924  4845 MR c np
85 dict begin %Colortable dictionary
/c0 { 0.000000 0.000000 0.000000 sr} bdef
/c1 { 1.000000 1.000000 1.000000 sr} bdef
/c2 { 0.900000 0.000000 0.000000 sr} bdef
/c3 { 0.000000 0.820000 0.000000 sr} bdef
/c4 { 0.000000 0.000000 0.800000 sr} bdef
/c5 { 0.910000 0.820000 0.320000 sr} bdef
/c6 { 1.000000 0.260000 0.820000 sr} bdef
/c7 { 0.000000 0.820000 0.820000 sr} bdef
c0
1 j
1 sg
   0    0 6913 5186 PR
6 w
0 4226 5356 0 0 -4226 899 4615 4 MP
PP
-5356 0 0 4226 5356 0 0 -4226 899 4615 5 MP stroke
4 w
DO
0 sg
 899 4615 mt  899  389 L
 899  389 mt  899  389 L
1434 4615 mt 1434  389 L
1434  389 mt 1434  389 L
1970 4615 mt 1970  389 L
1970  389 mt 1970  389 L
2505 4615 mt 2505  389 L
2505  389 mt 2505  389 L
3041 4615 mt 3041  389 L
3041  389 mt 3041  389 L
3577 4615 mt 3577  389 L
3577  389 mt 3577  389 L
4112 4615 mt 4112  389 L
4112  389 mt 4112  389 L
4648 4615 mt 4648  389 L
4648  389 mt 4648  389 L
5183 4615 mt 5183  389 L
5183  389 mt 5183  389 L
5719 4615 mt 5719  389 L
5719  389 mt 5719  389 L
6255 4615 mt 6255  389 L
6255  389 mt 6255  389 L
 899 4514 mt 6255 4514 L
6255 4514 mt 6255 4514 L
 899 4011 mt 6255 4011 L
6255 4011 mt 6255 4011 L
 899 3508 mt 6255 3508 L
6255 3508 mt 6255 3508 L
 899 3005 mt 6255 3005 L
6255 3005 mt 6255 3005 L
 899 2501 mt 6255 2501 L
6255 2501 mt 6255 2501 L
 899 1998 mt 6255 1998 L
6255 1998 mt 6255 1998 L
 899 1495 mt 6255 1495 L
6255 1495 mt 6255 1495 L
 899  992 mt 6255  992 L
6255  992 mt 6255  992 L
 899  489 mt 6255  489 L
6255  489 mt 6255  489 L
SO
6 w
 899 4615 mt 6255 4615 L
 899  389 mt 6255  389 L
 899 4615 mt  899  389 L
6255 4615 mt 6255  389 L
 899 4615 mt 6255 4615 L
 899 4615 mt  899  389 L
 899 4615 mt  899 4561 L
 899  389 mt  899  442 L
%%IncludeResource: font Helvetica
/Helvetica /ISOLatin1Encoding 120 FMSR

 866 4760 mt 
(0) s
1434 4615 mt 1434 4561 L
1434  389 mt 1434  442 L
1368 4760 mt 
(50) s
1970 4615 mt 1970 4561 L
1970  389 mt 1970  442 L
1870 4760 mt 
(100) s
2505 4615 mt 2505 4561 L
2505  389 mt 2505  442 L
2405 4760 mt 
(150) s
3041 4615 mt 3041 4561 L
3041  389 mt 3041  442 L
2941 4760 mt 
(200) s
3577 4615 mt 3577 4561 L
3577  389 mt 3577  442 L
3477 4760 mt 
(250) s
4112 4615 mt 4112 4561 L
4112  389 mt 4112  442 L
4012 4760 mt 
(300) s
4648 4615 mt 4648 4561 L
4648  389 mt 4648  442 L
4548 4760 mt 
(350) s
5183 4615 mt 5183 4561 L
5183  389 mt 5183  442 L
5083 4760 mt 
(400) s
5719 4615 mt 5719 4561 L
5719  389 mt 5719  442 L
5619 4760 mt 
(450) s
6255 4615 mt 6255 4561 L
6255  389 mt 6255  442 L
6155 4760 mt 
(500) s
 899 4514 mt  952 4514 L
6255 4514 mt 6201 4514 L
 798 4558 mt 
(0) s
 899 4011 mt  952 4011 L
6255 4011 mt 6201 4011 L
 698 4055 mt 
(0.5) s
 899 3508 mt  952 3508 L
6255 3508 mt 6201 3508 L
 798 3552 mt 
(1) s
 899 3005 mt  952 3005 L
6255 3005 mt 6201 3005 L
 698 3049 mt 
(1.5) s
 899 2501 mt  952 2501 L
6255 2501 mt 6201 2501 L
 798 2545 mt 
(2) s
 899 1998 mt  952 1998 L
6255 1998 mt 6201 1998 L
 698 2042 mt 
(2.5) s
 899 1495 mt  952 1495 L
6255 1495 mt 6201 1495 L
 798 1539 mt 
(3) s
 899  992 mt  952  992 L
6255  992 mt 6201  992 L
 698 1036 mt 
(3.5) s
 899  489 mt  952  489 L
6255  489 mt 6201  489 L
 798  533 mt 
(4) s
 899 4615 mt 6255 4615 L
 899  389 mt 6255  389 L
 899 4615 mt  899  389 L
6255 4615 mt 6255  389 L
gs 899 389 5357 4227 MR c np
/c8 { 0.000000 0.000000 1.000000 sr} bdef
c8
2 0 2 0 2 0 3 0 2 0 2 0 2 0 2 0 
2 0 2 0 3 0 2 0 2 0 2 0 2 0 2 0 
2 0 3 0 2 0 2 0 2 0 2 0 2 0 2 0 
3 0 2 0 2 0 2 0 2 0 2 0 2 0 3 0 
2 0 2 0 2 0 2 0 2 0 2 0 3 0 2 0 
2 0 2 0 2 0 2 0 2 0 3 0 2 0 2 0 
2 0 2 0 2 0 2 0 3 0 2 0 2 0 2 0 
2 0 2 0 2 0 3 0 2 0 2 0 2 0 2 0 
2 0 2 0 3 0 2 0 2 0 2 0 2 0 2 0 
2 0 2 0 3 0 2 0 2 0 2 0 2 0 2 0 
2 0 3 0 2 0 2 0 2 0 2 0 2 0 2 0 
3 0 2 0 2 0 2 0 2 0 2 0 2 0 3 0 
2 0 2 0 2 0 6043 2501 100 MP stroke
2 0 2 0 2 0 3 0 2 0 2 0 2 0 2 0 
2 0 2 0 3 0 2 0 2 0 2 0 2 0 2 0 
2 0 3 0 2 0 2 0 2 0 2 0 2 0 2 0 
3 0 2 0 2 0 2 0 2 0 2 0 2 0 3 0 
2 0 2 0 2 0 2 0 2 0 2 0 3 0 2 0 
2 0 2 0 2 0 2 0 2 0 3 0 2 0 2 0 
2 0 2 0 2 0 2 0 3 0 2 0 2 0 2 0 
2 0 2 0 2 0 3 0 2 0 2 0 2 0 2 0 
2 0 2 0 3 0 2 0 2 0 2 0 2 0 2 0 
2 0 3 0 2 0 2 0 2 0 2 0 2 0 2 0 
3 0 2 0 2 0 2 0 2 0 2 0 2 0 3 0 
2 0 2 0 2 0 2 0 2 0 2 0 3 0 2 0 
2 0 2 0 2 0 5831 2501 100 MP stroke
2 0 2 0 3 0 2 0 2 0 2 0 2 0 2 0 
2 0 3 0 2 0 2 0 2 0 2 0 2 0 2 0 
3 0 2 0 2 0 2 0 2 0 2 0 2 0 3 0 
2 0 2 0 2 0 2 0 2 0 2 0 3 0 2 0 
2 0 2 0 2 0 2 0 2 0 3 0 2 0 2 0 
2 0 2 0 2 0 2 0 3 0 2 0 2 0 2 0 
2 0 2 0 2 0 3 0 2 0 2 0 2 0 2 0 
2 0 2 0 3 0 2 0 2 0 2 0 2 0 2 0 
2 0 3 0 2 0 2 0 2 0 2 0 2 0 2 0 
3 0 2 0 2 0 2 0 2 0 2 0 2 0 3 0 
2 0 2 0 2 0 2 0 2 0 2 0 3 0 2 0 
2 0 2 0 2 0 2 0 2 0 3 0 2 0 2 0 
2 0 2 0 2 0 5619 2501 100 MP stroke
2 0 3 0 2 0 2 0 2 0 2 0 2 0 2 0 
3 0 2 0 2 0 2 0 2 0 2 0 2 0 3 0 
2 0 2 0 2 0 2 0 2 0 2 0 3 0 2 0 
2 0 2 0 2 0 2 0 2 0 3 0 2 0 2 0 
2 0 2 0 2 0 2 0 3 0 2 0 2 0 2 0 
2 0 2 0 2 0 3 0 2 0 2 0 2 0 2 0 
2 0 2 0 3 0 2 0 2 0 2 0 2 0 2 0 
2 0 3 0 2 0 2 0 2 0 2 0 2 0 2 0 
3 0 2 0 2 0 2 0 2 0 2 0 2 0 3 0 
2 0 2 0 2 0 2 0 2 0 2 0 3 0 2 0 
2 0 2 0 2 0 2 0 2 0 2 0 3 0 2 0 
2 0 2 0 2 0 2 0 2 0 3 0 2 0 2 0 
2 0 2 0 2 0 5407 2501 100 MP stroke
2 0 3 0 2 0 2 0 2 0 2 0 2 0 2 0 
3 0 2 0 2 0 2 0 2 0 2 0 2 0 3 0 
2 0 2 0 2 0 2 0 2 0 2 0 3 0 2 0 
2 0 2 0 2 0 2 0 2 0 3 0 2 0 2 0 
2 0 2 0 2 0 2 0 3 0 2 0 2 0 2 0 
2 0 2 0 2 0 3 0 2 0 2 0 2 0 2 0 
2 0 2 0 3 0 2 0 2 0 2 0 2 0 2 0 
2 0 3 0 2 0 2 0 2 0 2 0 2 0 2 0 
3 0 2 0 2 0 2 0 2 0 2 0 2 0 3 0 
2 0 2 0 2 0 2 0 2 0 2 0 3 0 2 0 
2 0 2 0 2 0 2 0 2 0 3 0 2 0 2 0 
2 0 2 0 2 0 2 0 3 0 2 0 2 0 2 0 
2 0 2 0 2 0 5195 2501 100 MP stroke
3 0 2 0 2 0 2 0 2 0 2 0 2 0 3 0 
2 0 2 0 2 0 2 0 2 0 2 0 3 0 2 0 
2 0 2 0 2 0 2 0 2 0 3 0 2 0 2 0 
2 0 2 0 2 0 2 0 3 0 2 0 2 0 2 0 
2 0 2 0 2 0 3 0 2 0 2 0 2 0 2 0 
2 0 2 0 3 0 2 0 2 0 2 0 2 0 2 0 
2 0 3 0 2 0 2 0 2 0 2 0 2 0 2 0 
3 0 2 0 2 0 2 0 2 0 2 0 2 0 3 0 
2 0 2 0 2 0 2 0 2 0 2 0 3 0 2 0 
2 0 2 0 2 0 2 0 2 0 3 0 2 0 2 0 
2 0 2 0 2 0 2 0 3 0 2 0 2 0 2 0 
2 0 2 0 2 0 3 0 2 0 2 0 2 0 2 0 
2 0 2 0 3 0 4982 2501 100 MP stroke
2 0 2 0 2 0 2 0 2 0 2 0 3 0 2 0 
2 0 2 0 2 0 2 0 2 0 3 0 2 0 2 0 
2 0 2 0 2 0 2 0 3 0 2 0 2 0 2 0 
2 0 2 0 2 0 3 0 2 0 2 0 2 0 2 0 
2 0 2 0 3 0 2 0 2 0 2 0 2 0 2 0 
2 0 3 0 2 0 2 0 2 0 2 0 2 0 2 0 
3 0 2 0 2 0 2 0 2 0 2 0 2 0 3 0 
2 0 2 0 2 0 2 0 2 0 2 0 3 0 2 0 
2 0 2 0 2 0 2 0 2 0 3 0 2 0 2 0 
2 0 2 0 2 0 2 0 3 0 2 0 2 0 2 0 
2 0 2 0 2 0 3 0 2 0 2 0 2 0 2 0 
2 0 2 0 3 0 2 0 2 0 2 0 2 0 2 0 
2 0 3 0 2 0 4770 2501 100 MP stroke
2 0 2 0 2 0 2 0 2 0 2 0 3 0 2 0 
2 0 2 0 2 0 2 0 2 0 3 0 2 0 2 0 
2 0 2 0 2 0 2 0 3 0 2 0 2 0 2 0 
2 0 2 0 2 0 3 0 2 0 2 0 2 0 2 0 
2 0 2 0 3 0 2 0 2 0 2 0 2 0 2 0 
2 0 3 0 2 0 2 0 2 0 2 0 2 0 2 0 
3 0 2 0 2 0 2 0 2 0 2 0 2 0 3 0 
2 0 2 0 2 0 2 0 2 0 2 0 3 0 2 0 
2 0 2 0 2 0 2 0 2 0 3 0 2 0 2 0 
2 0 2 0 2 0 2 0 3 0 2 0 2 0 2 0 
2 0 2 0 2 0 3 0 2 0 2 0 2 0 2 0 
2 0 2 0 3 0 2 0 2 0 2 0 2 0 2 0 
2 0 3 0 2 0 4558 2501 100 MP stroke
2 0 2 0 2 0 2 0 2 0 3 0 2 0 2 0 
2 0 2 0 2 0 2 0 3 0 2 0 2 0 2 0 
2 0 2 0 2 0 3 0 2 0 2 0 2 0 2 0 
2 0 2 0 3 0 2 0 2 0 2 0 2 0 2 0 
2 0 3 0 2 0 2 0 2 0 2 0 2 0 2 0 
3 0 2 0 2 0 2 0 2 0 2 0 2 0 3 0 
2 0 2 0 2 0 2 0 2 0 2 0 3 0 2 0 
2 0 2 0 2 0 2 0 2 0 3 0 2 0 2 0 
2 0 2 0 2 0 2 0 3 0 2 0 2 0 2 0 
2 0 2 0 2 0 3 0 2 0 2 0 2 0 2 0 
2 0 2 0 3 0 2 0 2 0 2 0 2 0 2 0 
2 0 3 0 2 0 2 0 2 0 2 0 2 0 2 0 
3 0 2 0 2 0 4346 2501 100 MP stroke
2 0 2 0 2 0 2 0 3 0 2 0 2 0 2 0 
2 0 2 0 2 0 3 0 2 0 2 0 2 0 2 0 
2 0 2 0 3 0 2 0 2 0 2 0 2 0 2 0 
2 0 3 0 2 0 2 0 2 0 2 0 2 0 2 0 
3 0 2 0 2 0 2 0 2 0 2 0 2 0 3 0 
2 0 2 0 2 0 2 0 2 0 2 0 3 0 2 0 
2 0 2 0 2 0 2 0 2 0 3 0 2 0 2 0 
2 0 2 0 2 0 2 0 3 0 2 0 2 0 2 0 
2 0 2 0 2 0 3 0 2 0 2 0 2 0 2 0 
2 0 2 0 3 0 2 0 2 0 2 0 2 0 2 0 
2 0 3 0 2 0 2 0 2 0 2 0 2 0 2 0 
3 0 2 0 2 0 2 0 2 0 2 0 2 0 3 0 
2 0 2 0 2 0 4134 2501 100 MP stroke
2 0 2 0 2 0 3 0 2 0 2 0 2 0 2 0 
2 0 2 0 3 0 2 0 2 0 2 0 2 0 2 0 
2 0 2 0 3 0 2 0 2 0 2 0 2 0 2 0 
2 0 3 0 2 0 2 0 2 0 2 0 2 0 2 0 
3 0 2 0 2 0 2 0 2 0 2 0 2 0 3 0 
2 0 2 0 2 0 2 0 2 0 2 0 3 0 2 0 
2 0 2 0 2 0 2 0 2 0 3 0 2 0 2 0 
2 0 2 0 2 0 2 0 3 0 2 0 2 0 2 0 
2 0 2 0 2 0 3 0 2 0 2 0 2 0 2 0 
2 0 2 0 3 0 2 0 2 0 2 0 2 0 2 0 
2 0 3 0 2 0 2 0 2 0 2 0 2 0 2 0 
3 0 2 0 2 0 2 0 2 0 2 0 2 0 3 0 
2 0 2 0 2 0 3922 2501 100 MP stroke
2 0 2 0 2 0 3 0 2 0 2 0 2 0 2 0 
2 0 2 0 3 0 2 0 2 0 2 0 2 0 2 0 
2 0 3 0 2 0 2 0 2 0 2 0 2 0 2 0 
3 0 2 0 2 0 2 0 2 0 2 0 2 0 3 0 
2 0 2 0 2 0 2 0 2 0 2 0 3 0 2 0 
2 0 2 0 2 0 2 0 2 0 3 0 2 0 2 0 
2 0 2 0 2 0 2 0 3 0 2 0 2 0 2 0 
2 0 2 0 2 0 3 0 2 0 2 0 2 0 2 0 
2 0 2 0 3 0 2 0 2 0 2 0 2 0 2 0 
2 0 3 0 2 0 2 0 2 0 2 0 2 0 2 0 
3 0 2 0 2 0 2 0 2 0 2 0 2 0 3 0 
2 0 2 0 2 0 2 0 2 0 2 0 3 0 2 0 
2 0 2 0 2 0 3710 2501 100 MP stroke
2 0 2 0 3 0 2 0 2 0 2 0 2 0 2 0 
2 0 3 0 2 0 2 0 2 0 2 0 2 0 2 0 
3 0 2 0 2 0 2 0 2 0 2 0 2 0 3 0 
2 0 2 0 2 0 2 0 2 0 2 0 3 0 2 0 
2 0 2 0 2 0 2 0 2 0 3 0 2 0 2 0 
2 0 2 0 2 0 2 0 3 0 2 0 2 0 2 0 
2 0 2 0 2 0 3 0 2 0 2 0 2 0 2 0 
2 0 2 0 3 0 2 0 2 0 2 0 2 0 2 0 
2 0 3 0 2 0 2 0 2 0 2 0 2 0 2 0 
3 0 2 0 2 0 2 0 2 0 2 0 2 0 3 0 
2 0 2 0 2 0 2 0 2 0 2 0 3 0 2 0 
2 0 2 0 2 0 2 0 2 0 3 0 2 0 2 0 
2 0 2 0 2 0 3498 2501 100 MP stroke
2 0 3 0 2 0 2 0 2 0 2 0 2 0 2 0 
3 0 2 0 2 0 2 0 2 0 2 0 2 0 3 0 
2 0 2 0 2 0 2 0 2 0 2 0 3 0 2 0 
2 0 2 0 2 0 2 0 2 0 3 0 2 0 2 0 
2 0 2 0 2 0 2 0 2 0 3 0 2 0 2 0 
2 0 2 0 2 0 2 0 3 0 2 0 2 0 2 0 
2 0 2 0 2 0 3 0 2 0 2 0 2 0 2 0 
2 0 2 0 3 0 2 0 2 0 2 0 2 0 2 0 
2 0 3 0 2 0 2 0 2 0 2 0 2 0 2 0 
3 0 2 0 2 0 2 0 2 0 2 0 2 0 3 0 
2 0 2 0 2 0 2 0 2 0 2 0 3 0 2 0 
2 0 2 0 2 0 2 0 2 0 3 0 2 0 2 0 
2 -1007 2 0 2 0 3286 3508 100 MP stroke
2 0 3 0 2 0 2 0 2 0 2 0 2 0 2 0 
3 0 2 0 2 0 2 0 2 0 2 0 2 0 3 0 
2 0 2 0 2 0 2 0 2 0 2 0 3 0 2 0 
2 0 2 0 2 0 2 0 2 0 3 0 2 0 2 0 
2 0 2 0 2 0 2 0 3 0 2 0 2 0 2 0 
2 0 2 0 2 0 3 0 2 0 2 0 2 0 2 0 
2 0 2 0 3 0 2 0 2 0 2 0 2 0 2 0 
2 0 3 0 2 0 2 0 2 0 2 0 2 0 2 0 
3 0 2 0 2 0 2 0 2 0 2 0 2 0 3 0 
2 0 2 0 2 0 2 0 2 0 2 0 3 0 2 0 
2 0 2 0 2 0 2 0 2 0 3 0 2 0 2 0 
2 0 2 0 2 0 2 0 3 0 2 0 2 0 2 0 
2 0 2 0 2 0 3074 3508 100 MP stroke
3 0 2 0 2 0 2 0 2 0 2 0 2 0 3 0 
2 0 2 0 2 0 2 0 2 0 2 0 3 0 2 0 
2 0 2 0 2 0 2 0 2 0 3 0 2 0 2 0 
2 0 2 0 2 0 2 0 3 0 2 0 2 0 2 0 
2 0 2 0 2 0 3 0 2 0 2 0 2 0 2 0 
2 0 2 0 3 0 2 0 2 0 2 0 2 0 2 0 
2 0 3 0 2 0 2 0 2 0 2 0 2 0 2 0 
3 0 2 0 2 0 2 0 2 0 2 0 2 0 3 0 
2 0 2 0 2 0 2 0 2 0 2 0 3 0 2 0 
2 0 2 0 2 0 2 0 2 0 3 0 2 0 2 0 
2 0 2 0 2 0 2 0 3 0 2 0 2 0 2 0 
2 0 2 0 2 0 3 0 2 0 2 0 2 0 2 0 
2 0 2 0 3 0 2861 3508 100 MP stroke
2 0 2 0 2 0 2 0 2 0 2 0 3 0 2 0 
2 0 2 0 2 0 2 0 2 0 3 0 2 0 2 0 
2 0 2 0 2 0 2 0 3 0 2 0 2 3019 2 0 
2 0 2 0 2 0 3 0 2 0 2 0 2 0 2 0 
2 0 2 0 3 0 2 0 2 0 2 0 2 0 2 0 
2 0 3 0 2 0 2 0 2 0 2 0 2 0 2 0 
2 0 3 0 2 0 2 0 2 0 2 0 2 0 2 0 
3 0 2 0 2 0 2 0 2 0 2 0 2 0 3 0 
2 0 2 0 2 0 2 0 2 0 2 0 3 0 2 0 
2 0 2 0 2 0 2 0 2 0 3 0 2 0 2 0 
2 0 2 0 2 0 2 0 3 0 2 0 2 0 2 0 
2 0 2 0 2 0 3 0 2 0 2 0 2 0 2 0 
2 0 2 0 3 0 2649 489 100 MP stroke
2 0 2 0 2 0 2 0 2 0 2 0 3 0 2 0 
2 0 2 0 2 0 2 0 2 0 3 0 2 0 2 0 
2 0 2 0 2 0 2 0 3 0 2 0 2 0 2 0 
2 0 2 0 2 0 3 0 2 0 2 0 2 0 2 0 
2 0 2 0 3 0 2 0 2 0 2 0 2 0 2 0 
2 0 3 0 2 0 2 0 2 0 2 0 2 0 2 0 
3 0 2 0 2 0 2 0 2 0 2 0 2 0 3 0 
2 0 2 0 2 0 2 0 2 0 2 0 3 0 2 0 
2 0 2 0 2 0 2 0 2 0 3 0 2 0 2 0 
2 0 2 0 2 0 2 0 3 0 2 0 2 0 2 0 
2 0 2 0 2 0 3 0 2 0 2 0 2 0 2 0 
2 0 2 0 3 0 2 0 2 0 2 0 2 0 2 0 
2 0 3 0 2 0 2437 489 100 MP stroke
2 0 2 0 2 0 2 0 2 0 3 0 2 0 2 0 
2 0 2 0 2 0 2 0 3 0 2 0 2 0 2 0 
2 0 2 0 2 0 3 0 2 0 2 0 2 0 2 0 
2 0 2 0 3 0 2 0 2 0 2 0 2 0 2 0 
2 0 3 0 2 0 2 0 2 0 2 0 2 0 2 0 
3 0 2 0 2 0 2 0 2 0 2 0 2 0 3 0 
2 0 2 0 2 0 2 0 2 0 2 0 3 0 2 0 
2 0 2 0 2 0 2 0 2 0 3 0 2 0 2 0 
2 0 2 0 2 0 2 0 3 0 2 0 2 0 2 0 
2 0 2 0 2 0 3 0 2 0 2 0 2 0 2 0 
2 0 2 0 3 0 2 0 2 0 2 0 2 0 2 0 
2 0 3 0 2 0 2 0 2 0 2 0 2 0 2 0 
3 0 2 0 2 0 2225 489 100 MP stroke
2 0 2 0 2 0 2 0 3 0 2 0 2 0 2 0 
2 0 2 0 2 0 3 0 2 0 2 0 2 0 2 0 
2 0 2 0 3 0 2 0 2 0 2 0 2 0 2 0 
2 0 3 0 2 0 2 0 2 0 2 0 2 0 2 0 
3 0 2 0 2 0 2 0 2 0 2 0 2 0 3 0 
2 0 2 0 2 0 2 0 2 0 2 0 3 0 2 0 
2 0 2 0 2 0 2 0 2 0 3 0 2 0 2 0 
2 0 2 0 2 0 2 0 3 0 2 0 2 0 2 0 
2 0 2 0 2 0 2 0 3 0 2 0 2 0 2 0 
2 0 2 0 2 0 3 0 2 0 2 0 2 0 2 0 
2 0 2 0 3 0 2 0 2 0 2 0 2 0 2 0 
2 0 3 0 2 0 2 0 2 0 2 0 2 0 2 0 
3 0 2 0 2 0 2013 489 100 MP stroke
2 0 2 0 2 0 2 0 3 0 2 0 2 0 2 0 
2 0 2 0 2 0 3 0 2 0 2 0 2 0 2 0 
2 0 2 0 3 0 2 0 2 0 2 0 2 0 2 0 
2 0 3 0 2 0 2 0 2 0 2 0 2 0 2 0 
3 0 2 0 2 0 2 0 2 0 2 0 2 0 3 0 
2 0 2 0 2 0 2 0 2 0 2 0 3 0 2 0 
2 0 2 0 2 0 2 0 2 0 3 0 2 0 2 0 
2 0 2 0 2 0 2 0 3 0 2 0 2 0 2 0 
2 0 2 0 2 0 3 0 2 0 2 0 2 0 2 0 
2 0 2 0 3 0 2 0 2 0 2 0 2 0 2 0 
2 0 3 0 2 0 2 0 2 0 2 0 2 0 2 0 
3 0 2 0 2 0 2 0 2 0 2 0 2 0 3 0 
2 0 2 0 2 0 1801 489 100 MP stroke
2 0 2 0 2 0 3 0 2 0 2 0 2 0 2 0 
2 0 2 0 3 0 2 0 2 0 2 0 2 0 2 0 
2 0 3 0 2 0 2 0 2 0 2 0 2 0 2 0 
3 0 2 0 2 0 2 0 2 0 2 0 2 0 3 0 
2 0 2 0 2 0 2 0 2 0 2 0 3 0 2 0 
2 0 2 0 2 0 2 0 2 0 3 0 2 0 2 0 
2 0 2 0 2 0 2 0 3 0 2 0 2 0 2 0 
2 0 2 0 2 0 3 0 2 0 2 0 2 0 2 0 
2 0 2 0 3 0 2 0 2 0 2 0 2 0 2 0 
2 0 3 0 2 0 2 0 2 0 2 0 2 0 2 0 
3 0 2 0 2 0 2 0 2 0 2 0 2 0 3 0 
2 0 2 0 2 0 2 0 2 0 2 0 3 0 2 0 
2 0 2 0 2 0 1589 489 100 MP stroke
2 0 2 0 3 0 2 0 2 0 2 0 2 0 2 0 
2 0 3 0 2 0 2 0 2 0 2 0 2 0 2 0 
3 0 2 0 2 0 2 0 2 0 2 0 2 0 3 0 
2 0 2 0 2 0 2 0 2 0 2 0 3 0 2 0 
2 0 2 0 2 0 2 0 2 0 3 0 2 0 2 0 
2 0 2 0 2 0 2 0 3 0 2 0 2 0 2 0 
2 0 2 0 2 0 3 0 2 0 2 0 2 0 2 0 
2 0 2 0 3 0 2 0 2 0 2 0 2 0 2 0 
2 0 3 0 2 0 2 0 2 0 2 0 2 0 2 0 
3 0 2 0 2 0 2 0 2 0 2 0 2 0 2 0 
3 0 2 0 2 0 2 0 2 0 2 0 2 0 3 0 
2 0 2 0 2 0 2 0 2 0 2 0 3 0 2 0 
2 0 2 0 2 0 1377 489 100 MP stroke
2 0 2 0 3 0 2 0 2 0 2 0 2 0 2 0 
2 0 3 0 2 0 2 0 2 0 2 0 2 0 2 0 
3 0 2 0 2 0 2 0 2 0 2 0 2 0 3 0 
2 0 2 0 2 0 2 0 2 0 2 0 3 0 2 0 
2 0 2 0 2 0 2 0 2 0 3 0 2 0 2 0 
2 0 2 0 2 0 2 0 3 0 2 0 2 0 2 0 
2 0 2 0 2 0 3 0 2 0 2 0 2 0 2 0 
2 -4025 2 0 3 0 2 0 2 0 2 0 2 0 2 0 
2 0 3 0 2 0 2 0 2 0 2 0 2 0 2 0 
3 0 2 0 2 0 2 0 2 0 2 0 2 0 3 0 
2 0 2 0 2 0 2 0 2 0 2 0 3 0 2 0 
2 0 2 0 2 0 2 0 2 0 3 0 2 0 2 0 
2 0 2 0 2 0 1165 4514 100 MP stroke
2 0 3 0 2 0 2 0 2 0 2 0 2 0 2 0 
3 0 2 0 2 0 2 0 2 0 2 0 2 0 3 0 
2 0 2 0 2 0 2 0 2 0 2 0 3 0 2 0 
2 0 2 0 2 0 2 0 2 0 3 0 2 0 2 0 
2 0 2 0 2 0 2 0 3 0 2 0 2 0 2 0 
2 0 2 0 2 0 3 0 2 0 2 0 2 0 2 0 
2 0 2 0 3 0 2 0 2 0 2 0 2 0 2 0 
2 0 3 0 2 0 2 0 2 0 2 0 2 0 2 0 
3 0 2 0 2 0 2 0 2 0 2 0 2 0 3 0 
2 0 2 0 2 0 2 0 2 0 2 0 3 0 2 0 
2 0 2 0 2 0 2 0 2 0 3 0 2 0 2 0 
2 0 2 0 2 0 2 0 3 0 2 0 2 0 2 0 
2 0 2 0 2 0 953 4514 100 MP stroke
3 0 2 0 2 0 2 0 2 0 2 0 2 0 3 0 
2 0 2 0 2 0 2 0 2 0 2 0 3 0 2 0 
2 0 2 0 2 0 2 0 2 0 3 0 2 0 2 0 
2 0 899 4514 26 MP stroke
/c9 { 0.000000 0.500000 0.000000 sr} bdef
c9
2 0 2 0 2 0 3 0 2 0 2 0 2 0 2 0 
2 0 2 0 3 0 2 0 2 0 2 0 2 0 2 0 
2 0 3 0 2 0 2 0 2 0 2 0 2 0 2 0 
3 0 2 0 2 0 2 0 2 0 2 0 2 0 3 0 
2 0 2 0 2 0 2 0 2 0 2 0 3 0 2 0 
2 0 2 0 2 0 2 0 2 0 3 0 2 0 2 0 
2 0 2 0 2 0 2 0 3 0 2 0 2 0 2 0 
2 0 2 0 2 0 3 0 2 0 2 0 2 0 2 0 
2 0 2 0 3 0 2 0 2 0 2 0 2 0 2 0 
2 0 2 0 3 0 2 0 2 0 2 0 2 0 2 0 
2 0 3 0 2 0 2 0 2 0 2 0 2 0 2 0 
3 0 2 0 2 0 2 0 2 0 2 0 2 0 3 0 
2 0 2 0 2 0 6043 2501 100 MP stroke
2 0 2 0 2 0 3 0 2 0 2 0 2 0 2 0 
2 0 2 0 3 0 2 0 2 0 2 0 2 0 2 0 
2 0 3 0 2 0 2 0 2 0 2 0 2 0 2 0 
3 0 2 0 2 0 2 0 2 0 2 0 2 0 3 0 
2 0 2 0 2 0 2 0 2 0 2 0 3 0 2 0 
2 0 2 0 2 0 2 0 2 0 3 0 2 0 2 0 
2 0 2 0 2 0 2 0 3 0 2 0 2 0 2 0 
2 0 2 0 2 0 3 0 2 0 2 0 2 0 2 0 
2 0 2 0 3 0 2 0 2 0 2 0 2 0 2 0 
2 0 3 0 2 0 2 0 2 0 2 0 2 0 2 0 
3 0 2 0 2 0 2 0 2 0 2 0 2 0 3 0 
2 0 2 0 2 0 2 0 2 0 2 0 3 0 2 0 
2 0 2 0 2 0 5831 2501 100 MP stroke
2 0 2 0 3 0 2 0 2 0 2 0 2 0 2 0 
2 0 3 0 2 0 2 0 2 0 2 0 2 0 2 0 
3 0 2 0 2 0 2 0 2 0 2 0 2 0 3 0 
2 0 2 0 2 0 2 0 2 0 2 0 3 0 2 0 
2 0 2 0 2 0 2 0 2 0 3 0 2 0 2 0 
2 0 2 0 2 0 2 0 3 0 2 0 2 0 2 0 
2 0 2 0 2 0 3 0 2 0 2 0 2 0 2 0 
2 0 2 0 3 0 2 0 2 0 2 0 2 0 2 0 
2 0 3 0 2 0 2 0 2 0 2 0 2 0 2 0 
3 0 2 0 2 0 2 0 2 0 2 0 2 0 3 0 
2 0 2 0 2 0 2 0 2 0 2 0 3 0 2 0 
2 0 2 0 2 0 2 0 2 0 3 0 2 0 2 0 
2 0 2 0 2 0 5619 2501 100 MP stroke
2 0 3 0 2 0 2 0 2 0 2 0 2 0 2 0 
3 0 2 0 2 0 2 0 2 0 2 0 2 0 3 0 
2 0 2 0 2 0 2 0 2 0 2 0 3 0 2 0 
2 0 2 0 2 0 2 0 2 0 3 0 2 0 2 0 
2 0 2 0 2 0 2 0 3 0 2 0 2 0 2 0 
2 0 2 0 2 0 3 0 2 0 2 0 2 0 2 0 
2 0 2 0 3 0 2 0 2 0 2 0 2 0 2 0 
2 0 3 0 2 0 2 0 2 0 2 0 2 0 2 0 
3 0 2 0 2 0 2 0 2 0 2 0 2 0 3 0 
2 0 2 0 2 0 2 0 2 0 2 0 3 0 2 0 
2 0 2 0 2 0 2 0 2 0 2 0 3 0 2 0 
2 0 2 0 2 0 2 0 2 0 3 0 2 0 2 0 
2 0 2 0 2 0 5407 2501 100 MP stroke
2 0 3 0 2 0 2 0 2 0 2 0 2 0 2 0 
3 0 2 0 2 0 2 0 2 0 2 0 2 0 3 0 
2 0 2 0 2 0 2 0 2 0 2 0 3 0 2 0 
2 0 2 0 2 0 2 0 2 0 3 0 2 0 2 0 
2 0 2 0 2 0 2 0 3 0 2 0 2 0 2 0 
2 0 2 0 2 0 3 0 2 0 2 0 2 0 2 0 
2 0 2 0 3 0 2 0 2 0 2 0 2 0 2 0 
2 0 3 0 2 0 2 0 2 0 2 0 2 0 2 0 
3 0 2 0 2 0 2 0 2 0 2 0 2 0 3 0 
2 0 2 0 2 0 2 0 2 0 2 0 3 0 2 0 
2 0 2 0 2 0 2 0 2 0 3 0 2 0 2 0 
2 0 2 0 2 0 2 0 3 0 2 0 2 0 2 0 
2 0 2 0 2 0 5195 2501 100 MP stroke
3 0 2 0 2 0 2 0 2 0 2 0 2 0 3 0 
2 0 2 0 2 0 2 0 2 0 2 0 3 0 2 0 
2 0 2 0 2 0 2 0 2 0 3 0 2 0 2 0 
2 0 2 0 2 0 2 0 3 0 2 0 2 0 2 0 
2 0 2 0 2 0 3 0 2 0 2 0 2 0 2 0 
2 0 2 0 3 0 2 0 2 0 2 0 2 0 2 0 
2 0 3 0 2 0 2 0 2 0 2 0 2 0 2 0 
3 0 2 0 2 0 2 0 2 0 2 0 2 0 3 0 
2 0 2 0 2 0 2 0 2 0 2 0 3 0 2 0 
2 0 2 0 2 0 2 0 2 0 3 0 2 0 2 0 
2 0 2 0 2 0 2 0 3 0 2 0 2 0 2 0 
2 0 2 0 2 0 3 0 2 0 2 0 2 0 2 0 
2 0 2 0 3 0 4982 2501 100 MP stroke
2 0 2 0 2 0 2 0 2 0 2 0 3 0 2 0 
2 0 2 0 2 0 2 0 2 0 3 0 2 0 2 0 
2 0 2 0 2 0 2 0 3 0 2 0 2 0 2 0 
2 0 2 0 2 0 3 0 2 0 2 0 2 0 2 0 
2 0 2 0 3 0 2 0 2 0 2 0 2 0 2 0 
2 0 3 0 2 0 2 0 2 0 2 0 2 0 2 0 
3 0 2 0 2 0 2 0 2 0 2 0 2 0 3 0 
2 0 2 0 2 0 2 0 2 0 2 0 3 0 2 0 
2 0 2 0 2 0 2 0 2 0 3 0 2 0 2 0 
2 0 2 0 2 0 2 0 3 0 2 0 2 0 2 0 
2 0 2 0 2 0 3 0 2 0 2 0 2 0 2 0 
2 0 2 0 3 0 2 0 2 0 2 0 2 0 2 0 
2 0 3 0 2 0 4770 2501 100 MP stroke
2 0 2 0 2 0 2 0 2 0 2 0 3 0 2 0 
2 0 2 0 2 0 2 0 2 0 3 0 2 0 2 0 
2 0 2 0 2 0 2 0 3 0 2 0 2 0 2 0 
2 0 2 0 2 0 3 0 2 0 2 0 2 0 2 0 
2 0 2 0 3 0 2 0 2 0 2 0 2 0 2 0 
2 0 3 0 2 0 2 0 2 0 2 0 2 0 2 0 
3 0 2 0 2 0 2 0 2 0 2 0 2 0 3 0 
2 0 2 0 2 0 2 0 2 0 2 0 3 0 2 0 
2 0 2 0 2 0 2 0 2 0 3 0 2 0 2 0 
2 0 2 0 2 0 2 0 3 0 2 0 2 0 2 0 
2 0 2 0 2 0 3 0 2 0 2 0 2 0 2 0 
2 0 2 0 3 0 2 0 2 0 2 0 2 0 2 0 
2 0 3 0 2 0 4558 2501 100 MP stroke
2 0 2 0 2 0 2 0 2 0 3 0 2 0 2 0 
2 0 2 0 2 0 2 0 3 0 2 0 2 0 2 0 
2 0 2 0 2 0 3 0 2 0 2 0 2 0 2 0 
2 0 2 0 3 0 2 0 2 0 2 0 2 0 2 0 
2 0 3 0 2 0 2 0 2 0 2 0 2 0 2 0 
3 0 2 0 2 0 2 0 2 0 2 0 2 0 3 0 
2 0 2 0 2 0 2 0 2 0 2 0 3 0 2 0 
2 0 2 0 2 0 2 0 2 0 3 0 2 0 2 0 
2 0 2 0 2 0 2 0 3 0 2 0 2 0 2 0 
2 0 2 0 2 0 3 0 2 0 2 0 2 0 2 0 
2 0 2 0 3 0 2 0 2 0 2 0 2 0 2 0 
2 0 3 0 2 0 2 0 2 0 2 0 2 0 2 0 
3 0 2 0 2 0 4346 2501 100 MP stroke
2 0 2 0 2 0 2 0 3 0 2 0 2 0 2 0 
2 0 2 0 2 0 3 0 2 0 2 0 2 0 2 0 
2 0 2 0 3 0 2 0 2 0 2 0 2 0 2 0 
2 0 3 0 2 0 2 0 2 0 2 0 2 0 2 0 
3 0 2 0 2 0 2 0 2 0 2 0 2 0 3 0 
2 0 2 0 2 0 2 0 2 0 2 0 3 0 2 0 
2 0 2 0 2 0 2 0 2 0 3 0 2 0 2 0 
2 0 2 0 2 0 2 0 3 0 2 0 2 0 2 0 
2 0 2 0 2 0 3 0 2 0 2 0 2 0 2 0 
2 0 2 0 3 0 2 0 2 0 2 0 2 0 2 0 
2 0 3 0 2 0 2 0 2 0 2 0 2 0 2 0 
3 0 2 0 2 0 2 0 2 0 2 0 2 0 3 0 
2 0 2 0 2 0 4134 2501 100 MP stroke
2 0 2 0 2 0 3 0 2 0 2 0 2 0 2 0 
2 0 2 0 3 0 2 0 2 0 2 0 2 0 2 0 
2 0 2 0 3 0 2 0 2 0 2 0 2 0 2 0 
2 0 3 0 2 0 2 0 2 0 2 0 2 0 2 0 
3 0 2 0 2 0 2 0 2 0 2 0 2 0 3 0 
2 0 2 0 2 0 2 0 2 0 2 0 3 0 2 0 
2 0 2 0 2 0 2 0 2 0 3 0 2 0 2 0 
2 0 2 0 2 0 2 0 3 0 2 0 2 0 2 0 
2 0 2 0 2 0 3 0 2 0 2 0 2 0 2 0 
2 0 2 0 3 0 2 0 2 0 2 0 2 0 2 0 
2 0 3 0 2 0 2 0 2 0 2 0 2 0 2 0 
3 0 2 0 2 0 2 0 2 0 2 0 2 0 3 0 
2 0 2 0 2 0 3922 2501 100 MP stroke
2 0 2 0 2 0 3 0 2 0 2 0 2 0 2 0 
2 0 2 0 3 0 2 0 2 0 2 0 2 0 2 0 
2 0 3 0 2 0 2 0 2 0 2 0 2 0 2 0 
3 0 2 0 2 0 2 0 2 0 2 0 2 0 3 0 
2 0 2 0 2 0 2 0 2 0 2 0 3 0 2 0 
2 0 2 0 2 0 2 0 2 0 3 0 2 0 2 0 
2 0 2 0 2 0 2 0 3 0 2 0 2 0 2 0 
2 0 2 0 2 0 3 0 2 0 2 0 2 0 2 0 
2 0 2 0 3 0 2 0 2 0 2 0 2 0 2 0 
2 0 3 0 2 0 2 0 2 0 2 0 2 0 2 0 
3 0 2 0 2 0 2 0 2 0 2 0 2 0 3 0 
2 0 2 0 2 0 2 0 2 0 2 0 3 0 2 0 
2 0 2 0 2 0 3710 2501 100 MP stroke
2 0 2 0 3 0 2 0 2 0 2 0 2 0 2 0 
2 0 3 0 2 0 2 0 2 0 2 0 2 0 2 0 
3 0 2 0 2 0 2 0 2 0 2 0 2 0 3 0 
2 0 2 0 2 0 2 0 2 0 2 0 3 0 2 0 
2 0 2 0 2 0 2 0 2 0 3 0 2 0 2 0 
2 0 2 0 2 0 2 0 3 0 2 0 2 0 2 0 
2 0 2 0 2 0 3 0 2 0 2 0 2 0 2 0 
2 0 2 0 3 0 2 0 2 0 2 0 2 0 2 0 
2 0 3 0 2 0 2 0 2 0 2 0 2 0 2 0 
3 0 2 0 2 0 2 0 2 0 2 0 2 0 3 0 
2 0 2 0 2 0 2 0 2 0 2 0 3 0 2 0 
2 0 2 0 2 0 2 0 2 0 3 0 2 0 2 0 
2 0 2 0 2 0 3498 2501 100 MP stroke
2 0 3 0 2 0 2 0 2 0 2 0 2 0 2 0 
3 0 2 0 2 0 2 0 2 0 2 0 2 0 3 0 
2 0 2 0 2 0 2 0 2 0 2 0 3 0 2 0 
2 0 2 0 2 0 2 0 2 0 3 0 2 0 2 0 
2 0 2 0 2 0 2 0 2 0 3 0 2 0 2 0 
2 0 2 0 2 0 2 0 3 0 2 0 2 0 2 0 
2 0 2 0 2 0 3 0 2 0 2 0 2 0 2 0 
2 0 2 0 3 0 2 0 2 0 2 0 2 0 2 0 
2 0 3 0 2 0 2 0 2 0 2 0 2 0 2 0 
3 0 2 0 2 0 2 0 2 0 2 0 2 0 3 0 
2 0 2 0 2 0 2 0 2 0 2 0 3 0 2 0 
2 0 2 0 2 0 2 0 2 0 3 0 2 0 2 0 
2 0 2 0 2 0 3286 2501 100 MP stroke
2 0 3 0 2 0 2 0 2 0 2 0 2 0 2 0 
3 0 2 0 2 0 2 0 2 0 2 0 2 0 3 0 
2 0 2 0 2 0 2 0 2 0 2 0 3 0 2 0 
2 0 2 0 2 0 2 0 2 0 3 0 2 0 2 0 
2 0 2 0 2 0 2 0 3 0 2 0 2 0 2 0 
2 0 2 0 2 0 3 0 2 0 2 0 2 0 2 0 
2 0 2 0 3 0 2 0 2 0 2 0 2 0 2 0 
2 0 3 0 2 0 2 0 2 0 2 0 2 0 2 0 
3 0 2 0 2 0 2 0 2 0 2 0 2 0 3 0 
2 0 2 0 2 0 2 0 2 0 2 0 3 0 2 0 
2 0 2 0 2 0 2 0 2 0 3 0 2 0 2 0 
2 0 2 0 2 0 2 0 3 0 2 0 2 0 2 0 
2 0 2 0 2 0 3074 2501 100 MP stroke
3 0 2 0 2 0 2 0 2 0 2 0 2 0 3 0 
2 0 2 0 2 0 2 0 2 0 2 0 3 0 2 0 
2 0 2 0 2 0 2 0 2 0 3 0 2 0 2 0 
2 0 2 0 2 0 2 0 3 0 2 0 2 0 2 0 
2 0 2 0 2 0 3 0 2 0 2 0 2 0 2 0 
2 0 2 0 3 0 2 0 2 0 2 0 2 0 2 0 
2 0 3 0 2 0 2 0 2 0 2 0 2 0 2 0 
3 0 2 0 2 0 2 0 2 0 2 0 2 0 3 0 
2 0 2 0 2 0 2 0 2 0 2 0 3 0 2 0 
2 0 2 0 2 0 2 0 2 0 3 0 2 0 2 0 
2 0 2 0 2 0 2 0 3 0 2 0 2 0 2 0 
2 0 2 0 2 0 3 0 2 0 2 0 2 0 2 0 
2 0 2 0 3 0 2861 2501 100 MP stroke
2 0 2 0 2 0 2 0 2 0 2 0 3 0 2 0 
2 0 2 0 2 0 2 0 2 0 3 0 2 0 2 0 
2 0 2 0 2 0 2 0 3 0 2 0 2 0 2 0 
2 0 2 0 2 0 3 0 2 0 2 0 2 0 2 0 
2 0 2 0 3 0 2 0 2 0 2 0 2 0 2 0 
2 0 3 0 2 0 2 0 2 0 2 0 2 0 2 0 
2 0 3 0 2 0 2 0 2 0 2 0 2 0 2 0 
3 0 2 0 2 0 2 0 2 0 2 0 2 0 3 0 
2 0 2 0 2 0 2 0 2 0 2 0 3 0 2 0 
2 0 2 0 2 0 2 0 2 0 3 0 2 0 2 0 
2 0 2 0 2 0 2 0 3 0 2 0 2 0 2 0 
2 0 2 0 2 0 3 0 2 0 2 0 2 0 2 0 
2 0 2 0 3 0 2649 2501 100 MP stroke
2 0 2 0 2 0 2 0 2 0 2 0 3 0 2 0 
2 0 2 0 2 0 2 0 2 0 3 0 2 0 2 0 
2 0 2 0 2 0 2 0 3 0 2 0 2 0 2 0 
2 0 2 0 2 0 3 0 2 0 2 0 2 0 2 0 
2 0 2 0 3 0 2 0 2 0 2 0 2 0 2 0 
2 0 3 0 2 0 2 0 2 0 2 0 2 0 2 0 
3 0 2 0 2 0 2 0 2 0 2 0 2 0 3 0 
2 0 2 0 2 0 2 0 2 0 2 0 3 0 2 0 
2 0 2 0 2 0 2 0 2 0 3 0 2 0 2 0 
2 0 2 0 2 0 2 0 3 0 2 0 2 0 2 0 
2 0 2 0 2 0 3 0 2 0 2 0 2 0 2 0 
2 0 2 0 3 0 2 0 2 0 2 0 2 0 2 0 
2 0 3 0 2 0 2437 2501 100 MP stroke
2 0 2 0 2 0 2 0 2 0 3 0 2 0 2 0 
2 0 2 0 2 0 2 0 3 0 2 0 2 0 2 0 
2 0 2 0 2 0 3 0 2 0 2 0 2 0 2 0 
2 0 2 0 3 0 2 0 2 0 2 0 2 0 2 0 
2 0 3 0 2 0 2 0 2 0 2 0 2 0 2 0 
3 0 2 0 2 0 2 0 2 0 2 0 2 0 3 0 
2 0 2 0 2 0 2 0 2 0 2 0 3 0 2 0 
2 0 2 0 2 0 2 0 2 0 3 0 2 0 2 0 
2 0 2 0 2 0 2 0 3 0 2 0 2 0 2 0 
2 0 2 0 2 0 3 0 2 0 2 0 2 0 2 0 
2 0 2 0 3 0 2 0 2 0 2 0 2 0 2 0 
2 0 3 0 2 0 2 0 2 0 2 0 2 0 2 0 
3 0 2 0 2 0 2225 2501 100 MP stroke
2 0 2 0 2 0 2 0 3 0 2 0 2 0 2 0 
2 0 2 0 2 0 3 0 2 0 2 0 2 0 2 0 
2 0 2 0 3 0 2 -1007 2 0 2 0 2 0 2 0 
2 0 3 0 2 0 2 0 2 0 2 0 2 0 2 0 
3 0 2 0 2 0 2 0 2 0 2 0 2 0 3 0 
2 0 2 0 2 0 2 0 2 0 2 0 3 0 2 0 
2 0 2 0 2 0 2 0 2 0 3 0 2 0 2 0 
2 0 2 0 2 0 2 0 3 0 2 0 2 0 2 0 
2 0 2 0 2 0 2 0 3 0 2 0 2 0 2 0 
2 0 2 0 2 0 3 0 2 0 2 0 2 0 2 0 
2 0 2 0 3 0 2 0 2 0 2 0 2 0 2 0 
2 0 3 0 2 0 2 0 2 0 2 0 2 0 2 0 
3 0 2 0 2 0 2013 3508 100 MP stroke
2 0 2 0 2 0 2 0 3 0 2 0 2 0 2 0 
2 0 2 0 2 0 3 0 2 0 2 0 2 0 2 0 
2 0 2 0 3 0 2 0 2 0 2 0 2 0 2 0 
2 0 3 0 2 0 2 0 2 0 2 0 2 0 2 0 
3 0 2 0 2 0 2 0 2 0 2 0 2 0 3 0 
2 0 2 0 2 0 2 0 2 0 2 0 3 0 2 0 
2 0 2 0 2 0 2 0 2 0 3 0 2 0 2 0 
2 0 2 0 2 0 2 0 3 0 2 0 2 0 2 0 
2 0 2 0 2 0 3 0 2 0 2 0 2 0 2 0 
2 0 2 0 3 0 2 0 2 0 2 0 2 0 2 0 
2 0 3 0 2 0 2 0 2 0 2 0 2 0 2 0 
3 0 2 0 2 0 2 0 2 0 2 0 2 0 3 0 
2 0 2 0 2 0 1801 3508 100 MP stroke
2 0 2 0 2 0 3 0 2 0 2 0 2 0 2 0 
2 0 2 0 3 0 2 0 2 0 2 0 2 0 2 0 
2 0 3 0 2 0 2 0 2 0 2 3019 2 0 2 0 
3 0 2 0 2 0 2 0 2 0 2 0 2 0 3 0 
2 0 2 0 2 0 2 0 2 0 2 0 3 0 2 0 
2 0 2 0 2 0 2 0 2 0 3 0 2 0 2 0 
2 0 2 0 2 0 2 0 3 0 2 0 2 0 2 0 
2 0 2 0 2 0 3 0 2 0 2 0 2 0 2 0 
2 0 2 0 3 0 2 0 2 0 2 0 2 0 2 0 
2 0 3 0 2 0 2 0 2 0 2 0 2 0 2 0 
3 0 2 0 2 0 2 0 2 0 2 0 2 0 3 0 
2 0 2 0 2 0 2 0 2 0 2 0 3 0 2 0 
2 0 2 0 2 0 1589 489 100 MP stroke
2 0 2 0 3 0 2 0 2 0 2 0 2 0 2 0 
2 0 3 0 2 0 2 0 2 0 2 0 2 0 2 0 
3 0 2 0 2 0 2 0 2 0 2 0 2 0 3 0 
2 0 2 0 2 0 2 0 2 0 2 0 3 0 2 0 
2 0 2 0 2 0 2 0 2 0 3 0 2 0 2 0 
2 0 2 0 2 0 2 0 3 0 2 0 2 0 2 0 
2 0 2 0 2 0 3 0 2 0 2 0 2 0 2 0 
2 0 2 0 3 0 2 0 2 0 2 0 2 0 2 0 
2 0 3 0 2 0 2 0 2 0 2 0 2 0 2 0 
3 0 2 0 2 0 2 0 2 0 2 0 2 0 2 0 
3 0 2 0 2 0 2 0 2 0 2 0 2 0 3 0 
2 0 2 0 2 0 2 0 2 0 2 0 3 0 2 0 
2 0 2 0 2 0 1377 489 100 MP stroke
2 0 2 0 3 0 2 0 2 0 2 0 2 0 2 0 
2 0 3 0 2 0 2 0 2 0 2 0 2 0 2 0 
3 0 2 0 2 0 2 0 2 0 2 0 2 0 3 0 
2 0 2 0 2 0 2 0 2 0 2 0 3 0 2 0 
2 0 2 0 2 0 2 0 2 0 3 0 2 0 2 0 
2 0 2 0 2 0 2 0 3 0 2 0 2 0 2 0 
2 0 2 0 2 0 3 0 2 0 2 0 2 0 2 0 
2 0 2 0 3 0 2 0 2 0 2 0 2 0 2 0 
2 0 3 0 2 0 2 0 2 0 2 0 2 0 2 0 
3 0 2 -4025 2 0 2 0 2 0 2 0 2 0 3 0 
2 0 2 0 2 0 2 0 2 0 2 0 3 0 2 0 
2 0 2 0 2 0 2 0 2 0 3 0 2 0 2 0 
2 0 2 0 2 0 1165 4514 100 MP stroke
2 0 3 0 2 0 2 0 2 0 2 0 2 0 2 0 
3 0 2 0 2 0 2 0 2 0 2 0 2 0 3 0 
2 0 2 0 2 0 2 0 2 0 2 0 3 0 2 0 
2 0 2 0 2 0 2 0 2 0 3 0 2 0 2 0 
2 0 2 0 2 0 2 0 3 0 2 0 2 0 2 0 
2 0 2 0 2 0 3 0 2 0 2 0 2 0 2 0 
2 0 2 0 3 0 2 0 2 0 2 0 2 0 2 0 
2 0 3 0 2 0 2 0 2 0 2 0 2 0 2 0 
3 0 2 0 2 0 2 0 2 0 2 0 2 0 3 0 
2 0 2 0 2 0 2 0 2 0 2 0 3 0 2 0 
2 0 2 0 2 0 2 0 2 0 3 0 2 0 2 0 
2 0 2 0 2 0 2 0 3 0 2 0 2 0 2 0 
2 0 2 0 2 0 953 4514 100 MP stroke
3 0 2 0 2 0 2 0 2 0 2 0 2 0 3 0 
2 0 2 0 2 0 2 0 2 0 2 0 3 0 2 0 
2 0 2 0 2 0 2 0 2 0 3 0 2 0 2 0 
2 0 899 4514 26 MP stroke
gr

c9
0 sg
3383 4903 mt 
(time [s]) s
 616 2663 mt  -90 rotate
(states) s
90 rotate
3406  294 mt 
(States) s
 882 4658 mt 
( ) s
6239  431 mt 
( ) s
1 sg
0 334 879 0 0 -334 5317 783 4 MP
PP
-879 0 0 334 879 0 0 -334 5317 783 5 MP stroke
4 w
DO
SO
6 w
0 sg
5317  783 mt 6196  783 L
5317  449 mt 6196  449 L
5317  783 mt 5317  449 L
6196  783 mt 6196  449 L
5317  783 mt 6196  783 L
5317  783 mt 5317  449 L
5317  783 mt 6196  783 L
5317  449 mt 6196  449 L
5317  783 mt 5317  449 L
6196  783 mt 6196  449 L
5762  585 mt 
(robot 1) s
gs 5317 449 880 335 MR c np
c8
341 0 5385 542 2 MP stroke
gr

c8
0 sg
5762  732 mt 
(robot 2) s
gs 5317 449 880 335 MR c np
c9
341 0 5385 689 2 MP stroke
gr

c9

end %%Color Dict

eplot
%%EndObject

epage
end

showpage

%%Trailer
%%EOF
