%!PS-Adobe-3.0 EPSF-3.0
%%Creator: MATLAB, The MathWorks, Inc. Version 8.1.0.604 (R2013a). Operating System: Linux 4.9.6-040906-generic #201701260330 SMP Thu Jan 26 08:32:10 UTC 2017 x86_64.
%%Title: /home/lukas/Universidad/MATLAB_trash/proc.eps
%%CreationDate: 02/01/2017  18:34:07
%%DocumentNeededFonts: Helvetica
%%DocumentProcessColors: Cyan Magenta Yellow Black
%%LanguageLevel: 2
%%Pages: 1
%%BoundingBox:    81   227   529   564
%%EndComments

%%BeginProlog
% MathWorks dictionary
/MathWorks 160 dict begin
% definition operators
/bdef {bind def} bind def
/ldef {load def} bind def
/xdef {exch def} bdef
/xstore {exch store} bdef
% operator abbreviations
/c  /clip ldef
/cc /concat ldef
/cp /closepath ldef
/gr /grestore ldef
/gs /gsave ldef
/mt /moveto ldef
/np /newpath ldef
/cm /currentmatrix ldef
/sm /setmatrix ldef
/rm /rmoveto ldef
/rl /rlineto ldef
/s {show newpath} bdef
/sc {setcmykcolor} bdef
/sr /setrgbcolor ldef
/sg /setgray ldef
/w /setlinewidth ldef
/j /setlinejoin ldef
/cap /setlinecap ldef
/rc {rectclip} bdef
/rf {rectfill} bdef
% page state control
/pgsv () def
/bpage {/pgsv save def} bdef
/epage {pgsv restore} bdef
/bplot /gsave ldef
/eplot {stroke grestore} bdef
% orientation switch
/portraitMode 0 def /landscapeMode 1 def /rotateMode 2 def
% coordinate system mappings
/dpi2point 0 def
% font control
/FontSize 0 def
/FMS {/FontSize xstore findfont [FontSize 0 0 FontSize neg 0 0]
  makefont setfont} bdef
/reencode {exch dup where {pop load} {pop StandardEncoding} ifelse
  exch dup 3 1 roll findfont dup length dict begin
  { 1 index /FID ne {def}{pop pop} ifelse } forall
  /Encoding exch def currentdict end definefont pop} bdef
/isroman {findfont /CharStrings get /Agrave known} bdef
/FMSR {3 1 roll 1 index dup isroman {reencode} {pop pop} ifelse
  exch FMS} bdef
/csm {1 dpi2point div -1 dpi2point div scale neg translate
 dup landscapeMode eq {pop -90 rotate}
  {rotateMode eq {90 rotate} if} ifelse} bdef
% line types: solid, dotted, dashed, dotdash
/SO { [] 0 setdash } bdef
/DO { [.5 dpi2point mul 4 dpi2point mul] 0 setdash } bdef
/DA { [6 dpi2point mul] 0 setdash } bdef
/DD { [.5 dpi2point mul 4 dpi2point mul 6 dpi2point mul 4
  dpi2point mul] 0 setdash } bdef
% macros for lines and objects
/L {lineto stroke} bdef
/MP {3 1 roll moveto 1 sub {rlineto} repeat} bdef
/AP {{rlineto} repeat} bdef
/PDlw -1 def
/W {/PDlw currentlinewidth def setlinewidth} def
/PP {closepath eofill} bdef
/DP {closepath stroke} bdef
/MR {4 -2 roll moveto dup  0 exch rlineto exch 0 rlineto
  neg 0 exch rlineto closepath} bdef
/FR {MR stroke} bdef
/PR {MR fill} bdef
/L1i {{currentfile picstr readhexstring pop} image} bdef
/tMatrix matrix def
/MakeOval {newpath tMatrix currentmatrix pop translate scale
0 0 1 0 360 arc tMatrix setmatrix} bdef
/FO {MakeOval stroke} bdef
/PO {MakeOval fill} bdef
/PD {currentlinewidth 2 div 0 360 arc fill
   PDlw -1 eq not {PDlw w /PDlw -1 def} if} def
/FA {newpath tMatrix currentmatrix pop translate scale
  0 0 1 5 -2 roll arc tMatrix setmatrix stroke} bdef
/PA {newpath tMatrix currentmatrix pop	translate 0 0 moveto scale
  0 0 1 5 -2 roll arc closepath tMatrix setmatrix fill} bdef
/FAn {newpath tMatrix currentmatrix pop translate scale
  0 0 1 5 -2 roll arcn tMatrix setmatrix stroke} bdef
/PAn {newpath tMatrix currentmatrix pop translate 0 0 moveto scale
  0 0 1 5 -2 roll arcn closepath tMatrix setmatrix fill} bdef
/vradius 0 def /hradius 0 def /lry 0 def
/lrx 0 def /uly 0 def /ulx 0 def /rad 0 def
/MRR {/vradius xdef /hradius xdef /lry xdef /lrx xdef /uly xdef
  /ulx xdef newpath tMatrix currentmatrix pop ulx hradius add uly
  vradius add translate hradius vradius scale 0 0 1 180 270 arc 
  tMatrix setmatrix lrx hradius sub uly vradius add translate
  hradius vradius scale 0 0 1 270 360 arc tMatrix setmatrix
  lrx hradius sub lry vradius sub translate hradius vradius scale
  0 0 1 0 90 arc tMatrix setmatrix ulx hradius add lry vradius sub
  translate hradius vradius scale 0 0 1 90 180 arc tMatrix setmatrix
  closepath} bdef
/FRR {MRR stroke } bdef
/PRR {MRR fill } bdef
/MlrRR {/lry xdef /lrx xdef /uly xdef /ulx xdef /rad lry uly sub 2 div def
  newpath tMatrix currentmatrix pop ulx rad add uly rad add translate
  rad rad scale 0 0 1 90 270 arc tMatrix setmatrix lrx rad sub lry rad
  sub translate rad rad scale 0 0 1 270 90 arc tMatrix setmatrix
  closepath} bdef
/FlrRR {MlrRR stroke } bdef
/PlrRR {MlrRR fill } bdef
/MtbRR {/lry xdef /lrx xdef /uly xdef /ulx xdef /rad lrx ulx sub 2 div def
  newpath tMatrix currentmatrix pop ulx rad add uly rad add translate
  rad rad scale 0 0 1 180 360 arc tMatrix setmatrix lrx rad sub lry rad
  sub translate rad rad scale 0 0 1 0 180 arc tMatrix setmatrix
  closepath} bdef
/FtbRR {MtbRR stroke } bdef
/PtbRR {MtbRR fill } bdef
/stri 6 array def /dtri 6 array def
/smat 6 array def /dmat 6 array def
/tmat1 6 array def /tmat2 6 array def /dif 3 array def
/asub {/ind2 exch def /ind1 exch def dup dup
  ind1 get exch ind2 get sub exch } bdef
/tri_to_matrix {
  2 0 asub 3 1 asub 4 0 asub 5 1 asub
  dup 0 get exch 1 get 7 -1 roll astore } bdef
/compute_transform {
  dmat dtri tri_to_matrix tmat1 invertmatrix 
  smat stri tri_to_matrix tmat2 concatmatrix } bdef
/ds {stri astore pop} bdef
/dt {dtri astore pop} bdef
/db {2 copy /cols xdef /rows xdef mul dup 3 mul string
  currentfile 
  3 index 0 eq {/ASCIIHexDecode filter}
  {/ASCII85Decode filter 3 index 2 eq {/RunLengthDecode filter} if }
  ifelse exch readstring pop
  dup 0 3 index getinterval /rbmap xdef
  dup 2 index dup getinterval /gbmap xdef
  1 index dup 2 mul exch getinterval /bbmap xdef pop pop}bdef
/it {gs np dtri aload pop moveto lineto lineto cp c
  cols rows 8 compute_transform 
  rbmap gbmap bbmap true 3 colorimage gr}bdef
/il {newpath moveto lineto stroke}bdef
currentdict end def
%%EndProlog

%%BeginSetup
MathWorks begin

0 cap

end
%%EndSetup

%%Page: 1 1
%%BeginPageSetup
%%PageBoundingBox:    81   227   529   564
MathWorks begin
bpage
%%EndPageSetup

%%BeginObject: obj1
bplot

/dpi2point 12 def
portraitMode 0972 6768 csm

    0     0  5376  4033 rc
85 dict begin %Colortable dictionary
/c0 { 0.000000 0.000000 0.000000 sr} bdef
/c1 { 1.000000 1.000000 1.000000 sr} bdef
/c2 { 0.900000 0.000000 0.000000 sr} bdef
/c3 { 0.000000 0.820000 0.000000 sr} bdef
/c4 { 0.000000 0.000000 0.800000 sr} bdef
/c5 { 0.910000 0.820000 0.320000 sr} bdef
/c6 { 1.000000 0.260000 0.820000 sr} bdef
/c7 { 0.000000 0.820000 0.820000 sr} bdef
c0
1 j
1 sg
   0    0 5377 4034 rf
6 w
0 3287 4166 0 0 -3287 699 3589 4 MP
PP
-4166 0 0 3287 4166 0 0 -3287 699 3589 5 MP stroke
4 w
DO
SO
6 w
0 sg
 699 3589 mt 4865 3589 L
 699  302 mt 4865  302 L
 699 3589 mt  699  302 L
4865 3589 mt 4865  302 L
 699 3589 mt 4865 3589 L
 699 3589 mt  699  302 L
 699 3589 mt  699 3547 L
 699  302 mt  699  343 L
%%IncludeResource: font Helvetica
/Helvetica /ISOLatin1Encoding 120 FMSR

 666 3734 mt 
(0) s
1219 3589 mt 1219 3547 L
1219  302 mt 1219  343 L
1186 3734 mt 
(2) s
1740 3589 mt 1740 3547 L
1740  302 mt 1740  343 L
1707 3734 mt 
(4) s
2261 3589 mt 2261 3547 L
2261  302 mt 2261  343 L
2228 3734 mt 
(6) s
2782 3589 mt 2782 3547 L
2782  302 mt 2782  343 L
2749 3734 mt 
(8) s
3302 3589 mt 3302 3547 L
3302  302 mt 3302  343 L
3236 3734 mt 
(10) s
3823 3589 mt 3823 3547 L
3823  302 mt 3823  343 L
3757 3734 mt 
(12) s
4344 3589 mt 4344 3547 L
4344  302 mt 4344  343 L
4278 3734 mt 
(14) s
4865 3589 mt 4865 3547 L
4865  302 mt 4865  343 L
4799 3734 mt 
(16) s
 699 3486 mt  740 3486 L
4865 3486 mt 4823 3486 L
 598 3530 mt 
(0) s
 699 2972 mt  740 2972 L
4865 2972 mt 4823 2972 L
 498 3016 mt 
(0.5) s
 699 2459 mt  740 2459 L
4865 2459 mt 4823 2459 L
 598 2503 mt 
(1) s
 699 1945 mt  740 1945 L
4865 1945 mt 4823 1945 L
 498 1989 mt 
(1.5) s
 699 1431 mt  740 1431 L
4865 1431 mt 4823 1431 L
 598 1475 mt 
(2) s
 699  918 mt  740  918 L
4865  918 mt 4823  918 L
 498  962 mt 
(2.5) s
 699  404 mt  740  404 L
4865  404 mt 4823  404 L
 598  448 mt 
(3) s
 699 3589 mt 4865 3589 L
 699  302 mt 4865  302 L
 699 3589 mt  699  302 L
4865 3589 mt 4865  302 L
gs 699 302 4167 3288 rc
/c8 { 0.000000 0.000000 1.000000 sr} bdef
c8
14 0 13 0 13 0 13 0 13 0 13 0 13 0 13 0 
13 0 13 0 13 0 13 0 13 0 13 0 13 0 13 0 
13 0 13 0 13 0 13 0 13 0 13 0 13 0 13 0 
13 0 13 0 13 0 13 0 13 0 13 0 13 0 13 0 
13 0 13 0 13 0 13 0 13 0 13 0 13 0 13 0 
13 0 13 0 13 0 13 0 13 0 13 0 13 0 13 0 
13 0 13 0 13 0 13 0 13 0 14 0 13 0 13 0 
13 0 13 0 13 0 13 0 13 0 13 0 13 0 13 0 
13 0 13 0 13 0 13 0 13 0 13 0 13 0 13 0 
13 0 13 0 13 0 13 0 13 0 13 0 13 0 13 0 
13 0 13 0 13 0 13 0 13 0 13 0 13 0 13 0 
13 0 13 0 13 0 13 0 13 0 13 0 13 0 13 0 
13 0 13 0 13 0 13 0 13 0 13 0 13 0 13 0 
13 0 13 0 14 0 13 0 13 0 13 0 13 0 13 0 
13 0 13 0 13 0 13 0 13 0 13 0 13 0 13 0 
13 0 13 0 13 0 13 0 13 0 13 0 13 0 13 0 
13 0 13 0 13 0 13 0 13 0 13 0 13 0 13 0 
13 0 13 0 13 0 13 0 13 0 13 0 13 0 13 0 
13 0 13 0 13 0 13 0 13 0 13 0 13 0 13 0 
13 0 13 0 13 0 13 0 13 0 13 0 13 0 13 0 
14 0 13 0 13 0 13 0 13 0 13 0 13 0 13 0 
13 0 13 0 13 0 13 0 13 0 13 0 13 0 13 0 
13 0 13 0 13 0 13 0 13 0 13 0 13 0 13 0 
13 0 13 0 13 0 13 0 13 0 13 0 13 0 13 0 
13 0 13 0 13 0 13 0 13 0 13 0 13 0 13 0 
13 0 13 0 13 0 13 0 13 0 13 0 13 0 13 0 
13 0 13 0 13 0 13 0 13 0 14 0 13 0 13 0 
13 0 13 0 13 0 13 0 13 0 13 0 13 0 13 0 
13 0 13 0 13 0 13 0 13 0 13 0 13 0 13 0 
13 0 13 0 13 0 13 0 13 0 13 0 13 0 13 0 
13 3082 13 0 13 0 13 0 13 0 13 0 13 0 13 0 
13 0 13 0 13 0 13 0 13 0 13 0 13 0 13 0 
13 0 13 0 13 0 13 0 13 -1027 13 0 13 0 13 0 
13 0 13 0 14 0 13 0 13 0 13 0 13 0 13 0 
13 0 13 0 13 0 13 0 13 0 13 0 13 0 13 0 
13 -1028 13 0 13 0 13 0 13 0 13 0 13 0 13 0 
13 0 13 0 13 0 13 0 13 0 13 0 13 0 13 0 
13 0 13 0 13 0 972 2459 300 MP stroke
13 0 13 -1027 13 0 13 0 13 0 13 0 13 0 13 0 
13 0 13 0 13 0 13 0 13 0 13 0 13 0 13 0 
13 0 13 0 13 0 13 0 13 0 699 3486 22 MP stroke
/c9 { 0.000000 0.500000 0.000000 sr} bdef
c9
14 0 13 0 13 0 13 0 13 0 13 0 13 0 13 0 
13 0 13 0 13 0 13 0 13 0 13 0 13 0 13 0 
13 0 13 0 13 0 13 0 13 0 13 0 13 0 13 0 
13 0 13 0 13 0 13 0 13 0 13 0 13 0 13 0 
13 0 13 0 13 0 13 0 13 0 13 0 13 0 13 0 
13 0 13 0 13 0 13 0 13 0 13 0 13 0 13 0 
13 0 13 0 13 0 13 0 13 0 14 0 13 0 13 0 
13 0 13 0 13 0 13 0 13 0 13 0 13 0 13 0 
13 0 13 0 13 0 13 0 13 0 13 0 13 0 13 0 
13 0 13 0 13 0 13 0 13 0 13 0 13 0 13 0 
13 0 13 0 13 0 13 0 13 0 13 0 13 0 13 0 
13 0 13 0 13 0 13 0 13 0 13 0 13 0 13 0 
13 0 13 0 13 0 13 0 13 0 13 0 13 0 13 0 
13 0 13 0 14 0 13 0 13 0 13 0 13 0 13 0 
13 0 13 0 13 0 13 0 13 0 13 0 13 0 13 0 
13 0 13 0 13 0 13 0 13 0 13 0 13 0 13 0 
13 0 13 0 13 0 13 0 13 0 13 0 13 0 13 0 
13 0 13 0 13 0 13 0 13 0 13 0 13 0 13 0 
13 0 13 0 13 0 13 0 13 0 13 0 13 0 13 0 
13 0 13 0 13 0 13 0 13 0 13 0 13 0 13 0 
14 3082 13 0 13 0 13 0 13 0 13 0 13 0 13 0 
13 0 13 0 13 0 13 0 13 0 13 0 13 0 13 0 
13 0 13 0 13 0 13 0 13 -1027 13 0 13 0 13 0 
13 0 13 0 13 0 13 0 13 0 13 0 13 0 13 0 
13 0 13 0 13 0 13 0 13 0 13 0 13 0 13 0 
13 -1028 13 0 13 0 13 0 13 0 13 0 13 0 13 0 
13 0 13 0 13 0 13 0 13 0 14 0 13 0 13 0 
13 0 13 0 13 0 13 0 13 -1027 13 0 13 0 13 0 
13 0 13 0 13 0 13 0 13 0 13 0 13 0 13 0 
13 0 13 0 13 0 13 0 13 0 13 0 13 0 13 0 
13 0 13 0 13 0 13 0 13 0 13 0 13 0 13 0 
13 0 13 0 13 0 13 0 13 0 13 0 13 0 13 0 
13 0 13 0 13 0 13 0 13 0 13 0 13 0 13 0 
13 0 13 0 14 0 13 0 13 0 13 0 13 0 13 0 
13 0 13 0 13 0 13 0 13 0 13 0 13 0 13 0 
13 0 13 0 13 0 13 0 13 0 13 0 13 0 13 0 
13 0 13 0 13 0 13 0 13 0 13 0 13 0 13 0 
13 0 13 0 13 0 972 3486 300 MP stroke
13 0 13 0 13 0 13 0 13 0 13 0 13 0 13 0 
13 0 13 0 13 0 13 0 13 0 13 0 13 0 13 0 
13 0 13 0 13 0 13 0 13 0 699 3486 22 MP stroke
/c10 { 1.000000 0.000000 0.000000 sr} bdef
c10
14 0 13 0 13 0 13 0 13 0 13 0 13 0 13 0 
13 0 13 0 13 0 13 0 13 0 13 0 13 0 13 0 
13 0 13 0 13 0 13 0 13 0 13 0 13 0 13 0 
13 0 13 0 13 0 13 0 13 0 13 0 13 0 13 0 
13 0 13 0 13 0 13 0 13 0 13 0 13 0 13 0 
13 0 13 0 13 0 13 0 13 0 13 0 13 0 13 0 
13 0 13 0 13 0 13 0 13 0 14 0 13 0 13 0 
13 0 13 0 13 0 13 0 13 0 13 0 13 0 13 0 
13 0 13 0 13 0 13 0 13 0 13 0 13 0 13 0 
13 0 13 0 13 0 13 0 13 0 13 0 13 0 13 0 
13 3082 13 0 13 0 13 0 13 0 13 0 13 0 13 0 
13 0 13 0 13 0 13 0 13 0 13 0 13 0 13 0 
13 0 13 0 13 0 13 0 13 -1027 13 0 13 0 13 0 
13 0 13 0 14 0 13 0 13 0 13 0 13 0 13 0 
13 0 13 0 13 0 13 0 13 0 13 0 13 0 13 0 
13 -1028 13 0 13 0 13 0 13 0 13 0 13 0 13 0 
13 0 13 0 13 0 13 0 13 0 13 0 13 0 13 0 
13 0 13 0 13 0 13 0 13 -1027 13 0 13 0 13 0 
13 0 13 0 13 0 13 0 13 0 13 0 13 0 13 0 
13 0 13 0 13 0 13 0 13 0 13 0 13 0 13 0 
14 0 13 0 13 0 13 0 13 0 13 0 13 0 13 0 
13 0 13 0 13 0 13 0 13 0 13 0 13 0 13 0 
13 0 13 0 13 0 13 0 13 0 13 0 13 0 13 0 
13 0 13 0 13 0 13 0 13 0 13 0 13 0 13 0 
13 0 13 0 13 0 13 0 13 0 13 0 13 0 13 0 
13 0 13 0 13 0 13 0 13 0 13 0 13 0 13 0 
13 0 13 0 13 0 13 0 13 0 14 0 13 0 13 0 
13 0 13 0 13 0 13 0 13 0 13 0 13 0 13 0 
13 0 13 0 13 0 13 0 13 0 13 0 13 0 13 0 
13 0 13 0 13 0 13 0 13 0 13 0 13 0 13 0 
13 0 13 0 13 0 13 0 13 0 13 0 13 0 13 0 
13 0 13 0 13 0 13 0 13 0 13 0 13 0 13 0 
13 0 13 0 13 0 13 0 13 0 13 0 13 0 13 0 
13 0 13 0 14 0 13 0 13 0 13 0 13 0 13 0 
13 0 13 0 13 0 13 0 13 0 13 0 13 0 13 0 
13 0 13 0 13 0 13 0 13 0 13 0 13 0 13 0 
13 0 13 0 13 0 13 0 13 0 13 0 13 0 13 0 
13 0 13 0 13 0 972 3486 300 MP stroke
13 0 13 0 13 0 13 0 13 0 13 0 13 0 13 0 
13 0 13 0 13 0 13 0 13 0 13 0 13 0 13 0 
13 0 13 0 13 0 13 0 13 0 699 3486 22 MP stroke
gr

c10
0 sg
2588 3877 mt 
(time [s]) s
 416 2559 mt  -90 rotate
(number of the machine) s
90 rotate
 682 3632 mt 
( ) s
4849  344 mt 
( ) s
1 sg
0 480 806 0 0 -480 3999 842 4 MP
PP
-806 0 0 480 806 0 0 -480 3999 842 5 MP stroke
4 w
DO
SO
6 w
0 sg
3999  842 mt 4805  842 L
3999  362 mt 4805  362 L
3999  842 mt 3999  362 L
4805  842 mt 4805  362 L
3999  842 mt 4805  842 L
3999  842 mt 3999  362 L
3999  842 mt 4805  842 L
3999  362 mt 4805  362 L
3999  842 mt 3999  362 L
4805  842 mt 4805  362 L
4465  498 mt 
(proc1) s
gs 3999 362 807 481 rc
c8
358 0 4070 455 2 MP stroke
gr

c8
0 sg
4465  645 mt 
(proc2) s
gs 3999 362 807 481 rc
c9
358 0 4070 602 2 MP stroke
gr

c9
0 sg
4465  791 mt 
(proc3) s
gs 3999 362 807 481 rc
c10
358 0 4070 748 2 MP stroke
gr

c10

end %%Color Dict

eplot
%%EndObject

epage
end

showpage

%%Trailer
%%EOF
